OFF
55 32 0
0 0 0
5 0 0
10 0 0
15 0 0
17.5 19.5 0
0 5 0
5 5 0
10 5 0
15 5 0
20 5 0
0 10 0
5 10 0
10 10 0
15 10 0
20 10 0
0 15 0
5 15 0
10 15 0
15 15 0
20 15 0
19.5 17.5 0
5 20 0
10 20 0
15 20 0
20 20 0
0.5 2.5 0
2.5 0.5 0
4.5 2.5 0
2.5 4.5 0
10.5 2.5 0
12.5 0.5 0
14.5 2.5 0
12.5 4.5 0
5.5 7.5 0
7.5 5.5 0
9.5 7.5 0
7.5 9.5 0
15.5 7.5 0
17.5 5.5 0
19.5 7.5 0
17.5 9.5 0
0.5 12.5 0
2.5 10.5 0
4.5 12.5 0
2.5 14.5 0
10.5 12.5 0
12.5 10.5 0
14.5 12.5 0
12.5 14.5 0
5.5 17.5 0
7.5 15.5 0
9.5 17.5 0
7.5 19.5 0
15.5 17.5 0
17.5 15.5 0
3 25 26 0 
3 53 23 4 
3 30 2 29 
3 4 24 20 
3 20 19 54 
3 34 6 33 
3 49 21 52 
3 38 8 37 
3 41 42 10 
3 52 22 51 
3 46 12 45 
3 51 17 50 
3 45 17 48 
3 50 16 49 
3 48 18 47 
3 54 18 53 
3 27 1 26 
3 28 6 27 
3 25 5 28 
3 47 13 46 
3 31 3 30 
3 32 8 31 
3 29 7 32 
3 41 15 44 
3 35 7 34 
3 36 12 35 
3 33 11 36 
3 44 16 43 
3 39 9 38 
3 40 14 39 
3 37 13 40 
3 43 11 42 
