OFF
395 252 0
22.5 15 0
21.5 15 0
22 14 0
0.5 17 0
1.5 17 0
2 18 0
1.5 1 0
1 0 0
2.5 1 0
2.5 21 0
1.5 21 0
3 20 0
6 6 0
6.5 5 0
6.5 7 0
21.5 11 0
21.5 13 0
21 12 0
12 10 0
12.5 9 0
12.5 11 0
15.5 3 0
14.5 3 0
16 2 0
13.5 13 0
12.5 13 0
13 12 0
8.5 5 0
8 6 0
7.5 5 0
0.5 1 0
2 2 0
3 0 0
3.5 1 0
0.5 5 0
0.5 3 0
1 4 0
9 4 0
6.5 3 0
7.5 3 0
4.5 1 0
4 2 0
10.5 5 0
11 4 0
11.5 5 0
11 12 0
10.5 13 0
10.5 11 0
4.5 3 0
3.5 3 0
3.5 5 0
4.5 5 0
4 6 0
0 2 0
1.5 11 0
2 10 0
2.5 11 0
3.5 13 0
4.5 13 0
4 14 0
0.5 19 0
0 18 0
3.5 17 0
4 18 0
3.5 19 0
6.5 19 0
7 20 0
5.5 19 0
2.5 15 0
3 16 0
2.5 17 0
6.5 15 0
5.5 15 0
6 14 0
7.5 7 0
7 8 0
1.5 9 0
2.5 9 0
0.5 15 0
0 14 0
0.5 13 0
13 20 0
12.5 19 0
13.5 19 0
9.5 11 0
8.5 11 0
10 10 0
7.5 19 0
8 18 0
8.5 19 0
12.5 21 0
11.5 21 0
22.5 21 0
22.5 19 0
23 20 0
15.5 21 0
14.5 21 0
15 20 0
18 18 0
18.5 19 0
17.5 19 0
20.5 19 0
21 20 0
19.5 19 0
11.5 9 0
11.5 11 0
16.5 9 0
17 8 0
17.5 9 0
19.5 9 0
20.5 9 0
20 10 0
22 6 0
22.5 7 0
21.5 7 0
15.5 7 0
15 8 0
14.5 7 0
19.5 7 0
20.5 7 0
21 8 0
18 10 0
18.5 11 0
17.5 11 0
18.5 7 0
17.5 7 0
18 6 0
20.5 11 0
20.5 13 0
16.5 5 0
16 6 0
15.5 5 0
19 8 0
20.5 3 0
21 4 0
19.5 3 0
17.5 5 0
18.5 5 0
20 2 0
21.5 3 0
20 6 0
19.5 5 0
20.5 5 0
14.5 1 0
14 2 0
13.5 1 0
23 16 0
22.5 17 0
1.5 5 0
1.5 3 0
2.5 3 0
0.5 7 0
0 6 0
3 4 0
2.5 5 0
8 2 0
9.5 3 0
8.5 3 0
9 8 0
9.5 9 0
8.5 9 0
6 2 0
5.5 3 0
5 4 0
5.5 1 0
5 0 0
6.5 1 0
9.5 1 0
8.5 1 0
7.5 1 0
7 0 0
9 0 0
10.5 3 0
11.5 3 0
12.5 3 0
12 2 0
13.5 9 0
13 8 0
10.5 1 0
10 2 0
12.5 1 0
13 0 0
7 4 0
5.5 5 0
5.5 7 0
8.5 7 0
9.5 5 0
10.5 7 0
10 6 0
15 4 0
14.5 5 0
9.5 7 0
13.5 5 0
12.5 5 0
13 4 0
7.5 11 0
7 12 0
6.5 11 0
10.5 9 0
5.5 9 0
6.5 9 0
8 10 0
5.5 11 0
6 10 0
7.5 9 0
4.5 9 0
4.5 7 0
5 8 0
5.5 13 0
6.5 13 0
3.5 9 0
4 10 0
4.5 11 0
3.5 7 0
3 8 0
2.5 7 0
2 6 0
1.5 7 0
1 8 0
1.5 13 0
2.5 13 0
2 14 0
0.5 9 0
0 10 0
0.5 11 0
1 12 0
5 12 0
3 12 0
3.5 11 0
7.5 15 0
7.5 17 0
7 16 0
4.5 15 0
3.5 15 0
1.5 15 0
1 16 0
2.5 19 0
1 20 0
0.5 21 0
1.5 19 0
3.5 21 0
4.5 21 0
4 22 0
2 22 0
5.5 21 0
5 20 0
6.5 21 0
6 22 0
4.5 19 0
5 16 0
6.5 17 0
5.5 17 0
4.5 17 0
6 18 0
12.5 15 0
13.5 15 0
13 16 0
8.5 15 0
8.5 17 0
8 14 0
12 22 0
13.5 21 0
7.5 21 0
10 22 0
8.5 21 0
9.5 21 0
8 22 0
10.5 21 0
9 20 0
9.5 19 0
14 14 0
14.5 15 0
10 18 0
10.5 19 0
16.5 15 0
15.5 15 0
16 14 0
11.5 19 0
11 20 0
9.5 17 0
10.5 17 0
9 12 0
7.5 13 0
9 16 0
8.5 13 0
11 16 0
10.5 15 0
11.5 15 0
9.5 15 0
11.5 13 0
9.5 13 0
12 14 0
10 14 0
14.5 9 0
14 10 0
13.5 11 0
14.5 13 0
15.5 13 0
18.5 9 0
15 12 0
16.5 13 0
17.5 15 0
17.5 17 0
17 16 0
16 18 0
15.5 17 0
16.5 17 0
11.5 17 0
13.5 17 0
12.5 17 0
12 18 0
14 22 0
15 16 0
16.5 21 0
16 22 0
14 18 0
22 22 0
21.5 21 0
14.5 19 0
15.5 19 0
14.5 17 0
19 16 0
19.5 15 0
19.5 17 0
16.5 19 0
18 14 0
18.5 15 0
19 20 0
18.5 21 0
17.5 21 0
17 20 0
18 22 0
20.5 21 0
20 22 0
19.5 21 0
22 18 0
21.5 19 0
21.5 17 0
18.5 17 0
20 18 0
21 16 0
20.5 17 0
20.5 15 0
20 14 0
17.5 13 0
17 12 0
18.5 13 0
22 10 0
22.5 11 0
19.5 13 0
22.5 13 0
23 12 0
23 8 0
22.5 9 0
19.5 11 0
21.5 9 0
21.5 5 0
17 4 0
16.5 3 0
17.5 3 0
19 12 0
16.5 11 0
14.5 11 0
16.5 7 0
15.5 9 0
16 10 0
15.5 11 0
11 8 0
11.5 7 0
12 6 0
13.5 7 0
12.5 7 0
14 6 0
13.5 3 0
19 4 0
11.5 1 0
11 0 0
15.5 1 0
15 0 0
16.5 1 0
18 2 0
18.5 3 0
18.5 1 0
17.5 1 0
19 0 0
17 0 0
19.5 1 0
20.5 1 0
21 0 0
23 4 0
22.5 5 0
22.5 3 0
22 2 0
21.5 1 0
22.5 1 0
3 0 1 2 
3 3 4 5 
3 6 7 8 
3 9 10 11 
3 12 13 14 
3 15 16 17 
3 18 19 20 
3 21 22 23 
3 24 25 26 
3 27 28 29 
3 30 6 31 
3 32 33 8 
3 34 35 36 
3 37 38 39 
3 33 40 41 
3 42 43 44 
3 45 46 47 
3 41 48 49 
3 50 51 52 
3 53 30 35 
3 54 55 56 
3 57 58 59 
3 60 61 3 
3 62 63 64 
3 65 66 67 
3 68 69 70 
3 71 72 73 
3 14 74 75 
3 55 76 77 
3 78 79 80 
3 81 82 83 
3 84 85 86 
3 87 88 89 
3 90 91 81 
3 92 93 94 
3 95 96 97 
3 98 99 100 
3 101 102 103 
3 104 18 105 
3 106 107 108 
3 109 110 111 
3 112 113 114 
3 115 116 117 
3 118 119 120 
3 121 122 123 
3 124 125 126 
3 127 17 128 
3 129 130 131 
3 118 132 124 
3 133 134 135 
3 136 137 126 
3 133 138 139 
3 140 141 142 
3 143 144 145 
3 146 147 0 
3 148 36 149 
3 150 149 31 
3 151 152 34 
3 150 49 153 
3 50 154 153 
3 155 156 157 
3 158 159 160 
3 161 157 39 
3 48 162 163 
3 164 40 165 
3 166 161 164 
3 167 155 168 
3 169 166 170 
3 171 168 169 
3 172 173 43 
3 174 173 175 
3 176 19 177 
3 178 179 167 
3 145 180 181 
3 182 162 38 
3 172 156 179 
3 183 12 184 
3 13 182 29 
3 74 185 158 
3 186 27 37 
3 42 187 188 
3 189 131 190 
3 188 191 186 
3 192 193 194 
3 195 196 197 
3 86 159 198 
3 199 200 201 
3 185 28 191 
3 197 202 203 
3 204 75 160 
3 205 199 203 
3 206 184 207 
3 207 204 200 
3 73 208 209 
3 210 211 77 
3 202 212 211 
3 213 52 206 
3 51 163 183 
3 214 215 213 
3 216 148 154 
3 217 216 215 
3 214 205 210 
3 151 217 218 
3 219 220 221 
3 76 222 218 
3 223 222 224 
3 225 224 54 
3 58 226 208 
3 227 56 228 
3 212 226 228 
3 85 195 201 
3 229 230 231 
3 220 227 57 
3 232 233 59 
3 78 234 235 
3 219 80 225 
3 234 221 68 
3 4 235 70 
3 64 236 5 
3 237 10 238 
3 237 60 239 
3 240 241 242 
3 9 240 243 
3 244 241 245 
3 236 11 239 
3 246 247 244 
3 67 245 248 
3 249 250 251 
3 252 248 63 
3 62 69 233 
3 65 253 87 
3 254 255 256 
3 257 258 259 
3 260 90 261 
3 262 246 66 
3 263 264 265 
3 266 262 264 
3 267 265 268 
3 269 268 89 
3 255 270 271 
3 272 273 269 
3 274 275 276 
3 273 277 278 
3 230 258 88 
3 279 280 272 
3 47 281 84 
3 71 231 250 
3 282 259 229 
3 253 252 251 
3 72 249 232 
3 283 257 284 
3 282 209 196 
3 285 286 287 
3 283 288 279 
3 105 289 45 
3 281 290 284 
3 254 287 291 
3 292 290 46 
3 293 294 176 
3 25 291 289 
3 20 295 26 
3 270 296 297 
3 108 298 121 
3 296 24 299 
3 276 297 300 
3 301 302 303 
3 304 305 306 
3 307 280 285 
3 308 309 256 
3 286 288 292 
3 82 277 310 
3 310 307 309 
3 311 261 96 
3 275 312 271 
3 91 267 278 
3 95 313 314 
3 315 83 308 
3 316 317 92 
3 318 319 97 
3 320 318 315 
3 321 322 323 
3 312 305 320 
3 324 319 304 
3 325 326 301 
3 99 327 328 
3 329 313 330 
3 331 329 328 
3 332 102 317 
3 332 333 334 
3 330 324 100 
3 335 336 337 
3 327 103 334 
3 302 338 98 
3 101 339 336 
3 335 147 93 
3 323 340 341 
3 342 322 343 
3 337 339 341 
3 303 306 274 
3 321 338 326 
3 344 300 345 
3 1 340 342 
3 344 346 325 
3 15 347 348 
3 343 349 128 
3 350 2 16 
3 348 351 350 
3 352 353 113 
3 354 111 127 
3 120 355 110 
3 356 142 134 
3 353 347 355 
3 357 358 359 
3 140 114 119 
3 360 122 354 
3 109 298 132 
3 346 360 349 
3 361 123 345 
3 295 362 299 
3 363 125 107 
3 364 106 365 
3 366 365 361 
3 104 198 367 
3 362 294 366 
3 368 187 369 
3 193 369 44 
3 370 117 177 
3 368 371 367 
3 116 364 293 
3 370 371 372 
3 190 372 192 
3 115 130 363 
3 373 144 22 
3 374 141 137 
3 375 180 175 
3 21 358 189 
3 373 194 174 
3 376 375 178 
3 377 378 379 
3 380 135 381 
3 382 383 384 
3 23 143 377 
3 385 383 379 
3 386 380 382 
3 387 386 388 
3 136 129 357 
3 374 359 381 
3 389 390 391 
3 392 391 139 
3 356 390 112 
3 393 394 392 
3 387 393 138 
