OFF
337 320 0
0 16 0
-1 14 0
0 12 0
2 12 0
4 12 0
3 14 0
4 16 0
2 16 0
6 12 0
8 12 0
7 14 0
8 16 0
6 16 0
10 12 0
12 12 0
11 14 0
12 16 0
10 16 0
14 12 0
16 12 0
15 14 0
16 16 0
14 16 0
16 8 0
17 10 0
13 10 0
12 8 0
14 8 0
9 10 0
8 8 0
10 8 0
5 10 0
4 8 0
6 8 0
1 10 0
0 8 0
2 8 0
-1 6 0
0 4 0
2 4 0
4 4 0
3 6 0
6 4 0
8 4 0
7 6 0
10 4 0
12 4 0
11 6 0
14 4 0
16 4 0
15 6 0
16 -3.57073e-07 0
17 2 0
13 2 0
12 -1.68587e-07 0
14 -2.6283e-07 0
9 2 0
8 -8.42937e-08 0
10 -1.26441e-07 0
5 2 0
4 0 0
6 -4.21468e-08 0
1 2 0
0 0 0
2 0 0
1.3 3.1 0
0.7 3.1 0
1 3.8 0
1 0.2 0
0.7 0.9 0
1.3 0.9 0
5.3 3.1 0
4.7 3.1 0
5 3.8 0
5 0.2 0
4.7 0.9 0
5.3 0.9 0
9.3 3.1 0
8.7 3.1 0
9 3.8 0
9 0.2 0
8.7 0.9 0
9.3 0.9 0
13.3 3.1 0
12.7 3.1 0
13 3.8 0
13 0.2 0
12.7 0.9 0
13.3 0.9 0
14.7 4.9 0
15.3 4.9 0
15 4.2 0
15 7.8 0
15.3 7.1 0
14.7 7.1 0
10.7 4.9 0
11.3 4.9 0
11 4.2 0
11 7.8 0
11.3 7.1 0
10.7 7.1 0
6.7 4.9 0
7.3 4.9 0
7 4.2 0
7 7.8 0
7.3 7.1 0
6.7 7.1 0
2.7 4.9 0
3.3 4.9 0
3 4.2 0
3 7.8 0
3.3 7.1 0
2.7 7.1 0
1.3 11.1 0
0.7 11.1 0
1 11.8 0
1 8.2 0
0.7 8.9 0
1.3 8.9 0
5.3 11.1 0
4.7 11.1 0
5 11.8 0
5 8.2 0
4.7 8.9 0
5.3 8.9 0
9.3 11.1 0
8.7 11.1 0
9 11.8 0
9 8.2 0
8.7 8.9 0
9.3 8.9 0
13.3 11.1 0
12.7 11.1 0
13 11.8 0
13 8.2 0
12.7 8.9 0
13.3 8.9 0
14.7 12.9 0
15.3 12.9 0
15 12.2 0
15 15.8 0
15.3 15.1 0
14.7 15.1 0
10.7 12.9 0
11.3 12.9 0
11 12.2 0
11 15.8 0
11.3 15.1 0
10.7 15.1 0
6.7 12.9 0
7.3 12.9 0
7 12.2 0
7 15.8 0
7.3 15.1 0
6.7 15.1 0
2.7 12.9 0
3.3 12.9 0
3 12.2 0
3 15.8 0
3.3 15.1 0
2.7 15.1 0
1.26 1.48 0
1.26 2.52 0
1.74 3.48 0
2.52 4 0
3.48 4 0
4.26 3.48 0
4.74 2.52 0
4.74 1.48 0
4.26 0.52 0
3 0.2 0
1.74 0.52 0
5.26 1.48 0
5.26 2.52 0
5.74 3.48 0
6.52 4 0
7.48 4 0
8.26 3.48 0
8.74 2.52 0
8.74 1.48 0
8.26 0.52 0
7 0.2 0
5.74 0.52 0
9.26 1.48 0
9.26 2.52 0
9.74 3.48 0
10.52 4 0
11.48 4 0
12.26 3.48 0
12.74 2.52 0
12.74 1.48 0
12.26 0.52 0
11 0.2 0
9.74 0.52 0
13.26 1.48 0
13.26 2.52 0
13.74 3.48 0
14.52 4 0
15.48 4 0
16.3 2.9 0
16.3 1.1 0
15 0.2 0
13.74 0.52 0
14.74 6.52 0
14.74 5.48 0
14.26 4.52 0
13.48 4 0
12.52 4 0
11.74 4.52 0
11.26 5.48 0
11.26 6.52 0
11.74 7.48 0
12.52 8 0
13.48 8 0
14.26 7.48 0
10.74 6.52 0
10.74 5.48 0
10.26 4.52 0
9.48 4 0
8.52 4 0
7.74 4.52 0
7.26 5.48 0
7.26 6.52 0
7.74 7.48 0
8.52 8 0
9.48 8 0
10.26 7.48 0
6.74 6.52 0
6.74 5.48 0
6.26 4.52 0
5.48 4 0
4.52 4 0
3.74 4.52 0
3.26 5.48 0
3.26 6.52 0
3.74 7.48 0
4.52 8 0
5.48 8 0
6.26 7.48 0
2.74 6.52 0
2.74 5.48 0
2.26 4.52 0
1.48 4 0
0.52 4 0
-0.3 5.1 0
-0.3 6.9 0
0.52 8 0
1.48 8 0
2.26 7.48 0
1.26 9.48 0
1.26 10.52 0
1.74 11.48 0
2.52 12 0
3.48 12 0
4.26 11.48 0
4.74 10.52 0
4.74 9.48 0
4.26 8.52 0
3.48 8 0
2.52 8 0
1.74 8.52 0
5.26 9.48 0
5.26 10.52 0
5.74 11.48 0
6.52 12 0
7.48 12 0
8.26 11.48 0
8.74 10.52 0
8.74 9.48 0
8.26 8.52 0
7.48 8 0
6.52 8 0
5.74 8.52 0
9.26 9.48 0
9.26 10.52 0
9.74 11.48 0
10.52 12 0
11.48 12 0
12.26 11.48 0
12.74 10.52 0
12.74 9.48 0
12.26 8.52 0
11.48 8 0
10.52 8 0
9.74 8.52 0
13.26 9.48 0
13.26 10.52 0
13.74 11.48 0
14.52 12 0
15.48 12 0
16.3 10.9 0
16.3 9.1 0
15.48 8 0
14.52 8 0
13.74 8.52 0
14.74 14.52 0
14.74 13.48 0
14.26 12.52 0
13.48 12 0
12.52 12 0
11.74 12.52 0
11.26 13.48 0
11.26 14.52 0
11.74 15.48 0
13 15.8 0
14.26 15.48 0
10.74 14.52 0
10.74 13.48 0
10.26 12.52 0
9.48 12 0
8.52 12 0
7.74 12.52 0
7.26 13.48 0
7.26 14.52 0
7.74 15.48 0
9 15.8 0
10.26 15.48 0
6.74 14.52 0
6.74 13.48 0
6.26 12.52 0
5.48 12 0
4.52 12 0
3.74 12.52 0
3.26 13.48 0
3.26 14.52 0
3.74 15.48 0
5 15.8 0
6.26 15.48 0
2.74 14.52 0
2.74 13.48 0
2.26 12.52 0
1.48 12 0
0.52 12 0
-0.3 13.1 0
-0.3 14.9 0
1 15.8 0
2.26 15.48 0
3 62 162 161 
4 65 162 62 66 
3 63 69 68 
3 59 173 172 
5 71 173 59 167 72 
4 60 169 75 74 
3 56 184 183 
5 77 184 56 178 78 
4 57 180 81 80 
3 53 195 194 
5 83 195 53 189 84 
4 54 191 87 86 
3 50 204 203 
4 89 204 50 90 
4 23 93 92 292 
3 47 216 215 
5 95 216 47 209 96 
5 26 211 99 98 282 
3 44 228 227 
5 101 228 44 221 102 
5 29 223 105 104 270 
3 41 240 239 
5 107 240 41 233 108 
5 32 235 111 110 258 
3 34 250 249 
4 113 250 34 114 
4 116 246 35 117 
3 31 262 261 
5 119 262 31 255 120 
5 122 236 32 257 123 
3 28 274 273 
5 125 274 28 267 126 
5 128 224 29 269 129 
3 25 286 285 
5 131 286 25 279 132 
5 134 212 26 281 135 
3 20 296 295 
4 137 296 20 138 
3 21 141 140 
3 15 307 306 
5 143 307 15 301 144 
4 16 303 147 146 
3 10 318 317 
5 149 318 10 312 150 
4 11 314 153 152 
3 5 329 328 
5 155 329 5 323 156 
4 6 325 159 158 
4 66 38 243 67 
5 67 242 39 163 65 
3 65 66 67 
4 69 62 161 70 
4 70 171 64 68 
3 68 69 70 
5 72 166 40 231 73 
5 73 230 42 174 71 
3 71 72 73 
5 75 168 59 172 76 
4 76 182 61 74 
3 74 75 76 
5 78 177 43 219 79 
5 79 218 45 185 77 
3 77 78 79 
5 81 179 56 183 82 
4 82 193 58 80 
3 80 81 82 
5 84 188 46 207 85 
5 85 206 48 196 83 
3 83 84 85 
5 87 190 53 194 88 
4 88 202 55 86 
3 86 87 88 
4 90 49 198 91 
5 91 197 48 205 89 
3 89 90 91 
4 93 50 203 94 
5 94 214 27 293 92 
3 92 93 94 
5 96 208 46 187 97 
5 97 186 45 217 95 
3 95 96 97 
5 99 210 47 215 100 
5 100 226 30 283 98 
3 98 99 100 
5 102 220 43 176 103 
5 103 175 42 229 101 
3 101 102 103 
5 105 222 44 227 106 
5 106 238 33 271 104 
3 104 105 106 
5 108 232 40 165 109 
5 109 164 39 241 107 
3 107 108 109 
5 111 234 41 239 112 
5 112 248 36 259 110 
3 110 111 112 
4 114 2 332 115 
5 115 331 3 251 113 
3 113 114 115 
4 117 34 249 118 
5 118 260 36 247 116 
3 116 117 118 
5 120 254 4 321 121 
5 121 320 8 263 119 
3 119 120 121 
5 123 256 31 261 124 
5 124 272 33 237 122 
3 122 123 124 
5 126 266 9 310 127 
5 127 309 13 275 125 
3 125 126 127 
5 129 268 28 273 130 
5 130 284 30 225 128 
3 128 129 130 
5 132 278 14 299 133 
5 133 298 18 287 131 
3 131 132 133 
5 135 280 25 285 136 
5 136 294 27 213 134 
3 134 135 136 
4 138 19 289 139 
5 139 288 18 297 137 
3 137 138 139 
4 141 20 295 142 
4 142 305 22 140 
3 140 141 142 
5 144 300 14 277 145 
5 145 276 13 308 143 
3 143 144 145 
5 147 302 15 306 148 
4 148 316 17 146 
3 146 147 148 
5 150 311 9 265 151 
5 151 264 8 319 149 
3 149 150 151 
5 153 313 10 317 154 
4 154 327 12 152 
3 152 153 154 
5 156 322 4 253 157 
5 157 252 3 330 155 
3 155 156 157 
5 159 324 5 328 160 
4 160 336 7 158 
3 158 159 160 
3 162 65 163 
3 163 39 164 
3 164 109 165 
3 165 40 166 
3 166 72 167 
3 167 59 168 
3 168 75 169 
3 169 60 170 
3 170 64 171 
3 171 70 161 
11 161 162 163 164 165 166 167 168 169 170 171 
3 173 71 174 
3 174 42 175 
3 175 103 176 
3 176 43 177 
3 177 78 178 
3 178 56 179 
3 179 81 180 
3 180 57 181 
3 181 61 182 
3 182 76 172 
11 172 173 174 175 176 177 178 179 180 181 182 
3 184 77 185 
3 185 45 186 
3 186 97 187 
3 187 46 188 
3 188 84 189 
3 189 53 190 
3 190 87 191 
3 191 54 192 
3 192 58 193 
3 193 82 183 
11 183 184 185 186 187 188 189 190 191 192 193 
3 195 83 196 
3 196 48 197 
3 197 91 198 
3 198 49 199 
3 199 52 200 
3 200 51 201 
3 201 55 202 
3 202 88 194 
9 194 195 196 197 198 199 200 201 202 
3 204 89 205 
3 205 48 206 
3 206 85 207 
3 207 46 208 
3 208 96 209 
3 209 47 210 
3 210 99 211 
3 211 26 212 
3 212 134 213 
3 213 27 214 
3 214 94 203 
12 203 204 205 206 207 208 209 210 211 212 213 214 
3 216 95 217 
3 217 45 218 
3 218 79 219 
3 219 43 220 
3 220 102 221 
3 221 44 222 
3 222 105 223 
3 223 29 224 
3 224 128 225 
3 225 30 226 
3 226 100 215 
12 215 216 217 218 219 220 221 222 223 224 225 226 
3 228 101 229 
3 229 42 230 
3 230 73 231 
3 231 40 232 
3 232 108 233 
3 233 41 234 
3 234 111 235 
3 235 32 236 
3 236 122 237 
3 237 33 238 
3 238 106 227 
12 227 228 229 230 231 232 233 234 235 236 237 238 
3 240 107 241 
3 241 39 242 
3 242 67 243 
3 243 38 244 
3 244 37 245 
3 245 35 246 
3 246 116 247 
3 247 36 248 
3 248 112 239 
10 239 240 241 242 243 244 245 246 247 248 
3 250 113 251 
3 251 3 252 
3 252 157 253 
3 253 4 254 
3 254 120 255 
3 255 31 256 
3 256 123 257 
3 257 32 258 
3 258 110 259 
3 259 36 260 
3 260 118 249 
12 249 250 251 252 253 254 255 256 257 258 259 260 
3 262 119 263 
3 263 8 264 
3 264 151 265 
3 265 9 266 
3 266 126 267 
3 267 28 268 
3 268 129 269 
3 269 29 270 
3 270 104 271 
3 271 33 272 
3 272 124 261 
12 261 262 263 264 265 266 267 268 269 270 271 272 
3 274 125 275 
3 275 13 276 
3 276 145 277 
3 277 14 278 
3 278 132 279 
3 279 25 280 
3 280 135 281 
3 281 26 282 
3 282 98 283 
3 283 30 284 
3 284 130 273 
12 273 274 275 276 277 278 279 280 281 282 283 284 
3 286 131 287 
3 287 18 288 
3 288 139 289 
3 289 19 290 
3 290 24 291 
3 291 23 292 
3 292 92 293 
3 293 27 294 
3 294 136 285 
10 285 286 287 288 289 290 291 292 293 294 
3 296 137 297 
3 297 18 298 
3 298 133 299 
3 299 14 300 
3 300 144 301 
3 301 15 302 
3 302 147 303 
3 303 16 304 
3 304 22 305 
3 305 142 295 
11 295 296 297 298 299 300 301 302 303 304 305 
3 307 143 308 
3 308 13 309 
3 309 127 310 
3 310 9 311 
3 311 150 312 
3 312 10 313 
3 313 153 314 
3 314 11 315 
3 315 17 316 
3 316 148 306 
11 306 307 308 309 310 311 312 313 314 315 316 
3 318 149 319 
3 319 8 320 
3 320 121 321 
3 321 4 322 
3 322 156 323 
3 323 5 324 
3 324 159 325 
3 325 6 326 
3 326 12 327 
3 327 154 317 
11 317 318 319 320 321 322 323 324 325 326 327 
3 329 155 330 
3 330 3 331 
3 331 115 332 
3 332 2 333 
3 333 1 334 
3 334 0 335 
3 335 7 336 
3 336 160 328 
9 328 329 330 331 332 333 334 335 336 
