OFF
955 938 0
0 16 0
-1 14 0
0 12 0
2 12 0
4 12 0
3 14 0
4 16 0
2 16 0
6 12 0
8 12 0
7 14 0
8 16 0
6 16 0
10 12 0
12 12 0
11 14 0
12 16 0
10 16 0
14 12 0
16 12 0
15 14 0
16 16 0
14 16 0
16 8 0
17 10 0
13 10 0
12 8 0
14 8 0
9 10 0
8 8 0
10 8 0
5 10 0
4 8 0
6 8 0
1 10 0
0 8 0
2 8 0
-1 6 0
0 4 0
2 4 0
4 4 0
3 6 0
6 4 0
8 4 0
7 6 0
10 4 0
12 4 0
11 6 0
14 4 0
16 4 0
15 6 0
16 -3.57073e-07 0
17 2 0
13 2 0
12 -1.68587e-07 0
14 -2.6283e-07 0
9 2 0
8 -8.42937e-08 0
10 -1.26441e-07 0
5 2 0
4 0 0
6 -4.21468e-08 0
1 2 0
0 0 0
2 0 0
1.3 3.1 0
0.7 3.1 0
1 3.8 0
1 0.2 0
0.7 0.9 0
1.3 0.9 0
5.3 3.1 0
4.7 3.1 0
5 3.8 0
5 0.2 0
4.7 0.9 0
5.3 0.9 0
9.3 3.1 0
8.7 3.1 0
9 3.8 0
9 0.2 0
8.7 0.9 0
9.3 0.9 0
13.3 3.1 0
12.7 3.1 0
13 3.8 0
13 0.2 0
12.7 0.9 0
13.3 0.9 0
14.7 4.9 0
15.3 4.9 0
15 4.2 0
15 7.8 0
15.3 7.1 0
14.7 7.1 0
10.7 4.9 0
11.3 4.9 0
11 4.2 0
11 7.8 0
11.3 7.1 0
10.7 7.1 0
6.7 4.9 0
7.3 4.9 0
7 4.2 0
7 7.8 0
7.3 7.1 0
6.7 7.1 0
2.7 4.9 0
3.3 4.9 0
3 4.2 0
3 7.8 0
3.3 7.1 0
2.7 7.1 0
1.3 11.1 0
0.7 11.1 0
1 11.8 0
1 8.2 0
0.7 8.9 0
1.3 8.9 0
5.3 11.1 0
4.7 11.1 0
5 11.8 0
5 8.2 0
4.7 8.9 0
5.3 8.9 0
9.3 11.1 0
8.7 11.1 0
9 11.8 0
9 8.2 0
8.7 8.9 0
9.3 8.9 0
13.3 11.1 0
12.7 11.1 0
13 11.8 0
13 8.2 0
12.7 8.9 0
13.3 8.9 0
14.7 12.9 0
15.3 12.9 0
15 12.2 0
15 15.8 0
15.3 15.1 0
14.7 15.1 0
10.7 12.9 0
11.3 12.9 0
11 12.2 0
11 15.8 0
11.3 15.1 0
10.7 15.1 0
6.7 12.9 0
7.3 12.9 0
7 12.2 0
7 15.8 0
7.3 15.1 0
6.7 15.1 0
2.7 12.9 0
3.3 12.9 0
3 12.2 0
3 15.8 0
3.3 15.1 0
2.7 15.1 0
1.26 1.48 0
1.26 2.52 0
1.74 3.48 0
2.52 4 0
3.48 4 0
4.26 3.48 0
4.74 2.52 0
4.74 1.48 0
4.26 0.52 0
3 0.2 0
1.74 0.52 0
5.26 1.48 0
5.26 2.52 0
5.74 3.48 0
6.52 4 0
7.48 4 0
8.26 3.48 0
8.74 2.52 0
8.74 1.48 0
8.26 0.52 0
7 0.2 0
5.74 0.52 0
9.26 1.48 0
9.26 2.52 0
9.74 3.48 0
10.52 4 0
11.48 4 0
12.26 3.48 0
12.74 2.52 0
12.74 1.48 0
12.26 0.52 0
11 0.2 0
9.74 0.52 0
13.26 1.48 0
13.26 2.52 0
13.74 3.48 0
14.52 4 0
15.48 4 0
16.3 2.9 0
16.3 1.1 0
15 0.2 0
13.74 0.52 0
14.74 6.52 0
14.74 5.48 0
14.26 4.52 0
13.48 4 0
12.52 4 0
11.74 4.52 0
11.26 5.48 0
11.26 6.52 0
11.74 7.48 0
12.52 8 0
13.48 8 0
14.26 7.48 0
10.74 6.52 0
10.74 5.48 0
10.26 4.52 0
9.48 4 0
8.52 4 0
7.74 4.52 0
7.26 5.48 0
7.26 6.52 0
7.74 7.48 0
8.52 8 0
9.48 8 0
10.26 7.48 0
6.74 6.52 0
6.74 5.48 0
6.26 4.52 0
5.48 4 0
4.52 4 0
3.74 4.52 0
3.26 5.48 0
3.26 6.52 0
3.74 7.48 0
4.52 8 0
5.48 8 0
6.26 7.48 0
2.74 6.52 0
2.74 5.48 0
2.26 4.52 0
1.48 4 0
0.52 4 0
-0.3 5.1 0
-0.3 6.9 0
0.52 8 0
1.48 8 0
2.26 7.48 0
1.26 9.48 0
1.26 10.52 0
1.74 11.48 0
2.52 12 0
3.48 12 0
4.26 11.48 0
4.74 10.52 0
4.74 9.48 0
4.26 8.52 0
3.48 8 0
2.52 8 0
1.74 8.52 0
5.26 9.48 0
5.26 10.52 0
5.74 11.48 0
6.52 12 0
7.48 12 0
8.26 11.48 0
8.74 10.52 0
8.74 9.48 0
8.26 8.52 0
7.48 8 0
6.52 8 0
5.74 8.52 0
9.26 9.48 0
9.26 10.52 0
9.74 11.48 0
10.52 12 0
11.48 12 0
12.26 11.48 0
12.74 10.52 0
12.74 9.48 0
12.26 8.52 0
11.48 8 0
10.52 8 0
9.74 8.52 0
13.26 9.48 0
13.26 10.52 0
13.74 11.48 0
14.52 12 0
15.48 12 0
16.3 10.9 0
16.3 9.1 0
15.48 8 0
14.52 8 0
13.74 8.52 0
14.74 14.52 0
14.74 13.48 0
14.26 12.52 0
13.48 12 0
12.52 12 0
11.74 12.52 0
11.26 13.48 0
11.26 14.52 0
11.74 15.48 0
13 15.8 0
14.26 15.48 0
10.74 14.52 0
10.74 13.48 0
10.26 12.52 0
9.48 12 0
8.52 12 0
7.74 12.52 0
7.26 13.48 0
7.26 14.52 0
7.74 15.48 0
9 15.8 0
10.26 15.48 0
6.74 14.52 0
6.74 13.48 0
6.26 12.52 0
5.48 12 0
4.52 12 0
3.74 12.52 0
3.26 13.48 0
3.26 14.52 0
3.74 15.48 0
5 15.8 0
6.26 15.48 0
2.74 14.52 0
2.74 13.48 0
2.26 12.52 0
1.48 12 0
0.52 12 0
-0.3 13.1 0
-0.3 14.9 0
1 15.8 0
2.26 15.48 0
1 3.04 0
1.222 2.814 0
1.078 2.286 0
0.96 2.58 0
5 3.04 0
5.222 2.814 0
5.078 2.286 0
4.922 2.286 0
4.778 2.814 0
4.48 0.2 0
4.182 0.234 0
4.518 0.666 0
4.78 0.52 0
9 3.04 0
9.222 2.814 0
9.078 2.286 0
8.922 2.286 0
8.778 2.814 0
8.48 0.2 0
8.182 0.234 0
8.518 0.666 0
8.78 0.52 0
13 3.04 0
13.222 2.814 0
13.078 2.286 0
12.922 2.286 0
12.778 2.814 0
12.48 0.2 0
12.182 0.234 0
12.518 0.666 0
12.78 0.52 0
15 4.96 0
14.778 5.186 0
14.922 5.714 0
15.04 5.42 0
15.74 7.948 0
15.56 7.62 0
15.22 7.48 0
15.26 7.852 0
11 4.96 0
10.778 5.186 0
10.922 5.714 0
11.078 5.714 0
11.222 5.186 0
11.74 7.948 0
11.818 7.766 0
11.482 7.334 0
11.22 7.48 0
11.26 7.852 0
7 4.96 0
6.778 5.186 0
6.922 5.714 0
7.078 5.714 0
7.222 5.186 0
7.74 7.948 0
7.818 7.766 0
7.482 7.334 0
7.22 7.48 0
7.26 7.852 0
3 4.96 0
2.778 5.186 0
2.922 5.714 0
3.078 5.714 0
3.222 5.186 0
3.74 7.948 0
3.818 7.766 0
3.482 7.334 0
3.22 7.48 0
3.26 7.852 0
1 11.04 0
1.222 10.814 0
1.078 10.286 0
0.96 10.58 0
0.78 8.52 0
0.74 8.148 0
0.26 8.052 0
0.44 8.38 0
5 11.04 0
5.222 10.814 0
5.078 10.286 0
4.922 10.286 0
4.778 10.814 0
4.78 8.52 0
4.74 8.148 0
4.26 8.052 0
4.182 8.234 0
4.518 8.666 0
9 11.04 0
9.222 10.814 0
9.078 10.286 0
8.922 10.286 0
8.778 10.814 0
8.78 8.52 0
8.74 8.148 0
8.26 8.052 0
8.182 8.234 0
8.518 8.666 0
13 11.04 0
13.222 10.814 0
13.078 10.286 0
12.922 10.286 0
12.778 10.814 0
12.78 8.52 0
12.74 8.148 0
12.26 8.052 0
12.182 8.234 0
12.518 8.666 0
15 12.96 0
14.778 13.186 0
14.922 13.714 0
15.04 13.42 0
11 12.96 0
10.778 13.186 0
10.922 13.714 0
11.078 13.714 0
11.222 13.186 0
11.52 15.8 0
11.818 15.766 0
11.482 15.334 0
11.22 15.48 0
7 12.96 0
6.778 13.186 0
6.922 13.714 0
7.078 13.714 0
7.222 13.186 0
7.52 15.8 0
7.818 15.766 0
7.482 15.334 0
7.22 15.48 0
3 12.96 0
2.778 13.186 0
2.922 13.714 0
3.078 13.714 0
3.222 13.186 0
3.52 15.8 0
3.818 15.766 0
3.482 15.334 0
3.22 15.48 0
0.78 3.48 0
0.44 3.62 0
0.26 3.948 0
0.74 3.852 0
1.22 3.48 0
1.26 3.852 0
1.74 3.948 0
1.818 3.766 0
1.482 3.334 0
1 0.96 0
0.96 1.42 0
1.078 1.714 0
1.222 1.186 0
1.22 0.52 0
1.482 0.666 0
1.818 0.234 0
1.52 0.2 0
4.78 3.48 0
4.518 3.334 0
4.182 3.766 0
4.26 3.948 0
4.74 3.852 0
5.22 3.48 0
5.26 3.852 0
5.74 3.948 0
5.818 3.766 0
5.482 3.334 0
5 0.96 0
4.778 1.186 0
4.922 1.714 0
5.078 1.714 0
5.222 1.186 0
5.22 0.52 0
5.482 0.666 0
5.818 0.234 0
5.52 0.2 0
8.78 3.48 0
8.518 3.334 0
8.182 3.766 0
8.26 3.948 0
8.74 3.852 0
9.22 3.48 0
9.26 3.852 0
9.74 3.948 0
9.818 3.766 0
9.482 3.334 0
9 0.96 0
8.778 1.186 0
8.922 1.714 0
9.078 1.714 0
9.222 1.186 0
9.22 0.52 0
9.482 0.666 0
9.818 0.234 0
9.52 0.2 0
12.78 3.48 0
12.518 3.334 0
12.182 3.766 0
12.26 3.948 0
12.74 3.852 0
13.22 3.48 0
13.26 3.852 0
13.74 3.948 0
13.818 3.766 0
13.482 3.334 0
13 0.96 0
12.778 1.186 0
12.922 1.714 0
13.078 1.714 0
13.222 1.186 0
13.22 0.52 0
13.482 0.666 0
13.818 0.234 0
13.52 0.2 0
15.22 4.52 0
15.56 4.38 0
15.74 4.052 0
15.26 4.148 0
14.78 4.52 0
14.74 4.148 0
14.26 4.052 0
14.182 4.234 0
14.518 4.666 0
15 7.04 0
15.04 6.58 0
14.922 6.286 0
14.778 6.814 0
14.78 7.48 0
14.518 7.334 0
14.182 7.766 0
14.26 7.948 0
14.74 7.852 0
11.22 4.52 0
11.482 4.666 0
11.818 4.234 0
11.74 4.052 0
11.26 4.148 0
10.78 4.52 0
10.74 4.148 0
10.26 4.052 0
10.182 4.234 0
10.518 4.666 0
11 7.04 0
11.222 6.814 0
11.078 6.286 0
10.922 6.286 0
10.778 6.814 0
10.78 7.48 0
10.518 7.334 0
10.182 7.766 0
10.26 7.948 0
10.74 7.852 0
7.22 4.52 0
7.482 4.666 0
7.818 4.234 0
7.74 4.052 0
7.26 4.148 0
6.78 4.52 0
6.74 4.148 0
6.26 4.052 0
6.182 4.234 0
6.518 4.666 0
7 7.04 0
7.222 6.814 0
7.078 6.286 0
6.922 6.286 0
6.778 6.814 0
6.78 7.48 0
6.518 7.334 0
6.182 7.766 0
6.26 7.948 0
6.74 7.852 0
3.22 4.52 0
3.482 4.666 0
3.818 4.234 0
3.74 4.052 0
3.26 4.148 0
2.78 4.52 0
2.74 4.148 0
2.26 4.052 0
2.182 4.234 0
2.518 4.666 0
3 7.04 0
3.222 6.814 0
3.078 6.286 0
2.922 6.286 0
2.778 6.814 0
2.78 7.48 0
2.518 7.334 0
2.182 7.766 0
2.26 7.948 0
2.74 7.852 0
0.78 11.48 0
0.44 11.62 0
0.26 11.948 0
0.74 11.852 0
1.22 11.48 0
1.26 11.852 0
1.74 11.948 0
1.818 11.766 0
1.482 11.334 0
1 8.96 0
0.96 9.42 0
1.078 9.714 0
1.222 9.186 0
1.22 8.52 0
1.482 8.666 0
1.818 8.234 0
1.74 8.052 0
1.26 8.148 0
4.78 11.48 0
4.518 11.334 0
4.182 11.766 0
4.26 11.948 0
4.74 11.852 0
5.22 11.48 0
5.26 11.852 0
5.74 11.948 0
5.818 11.766 0
5.482 11.334 0
5 8.96 0
4.778 9.186 0
4.922 9.714 0
5.078 9.714 0
5.222 9.186 0
5.22 8.52 0
5.482 8.666 0
5.818 8.234 0
5.74 8.052 0
5.26 8.148 0
8.78 11.48 0
8.518 11.334 0
8.182 11.766 0
8.26 11.948 0
8.74 11.852 0
9.22 11.48 0
9.26 11.852 0
9.74 11.948 0
9.818 11.766 0
9.482 11.334 0
9 8.96 0
8.778 9.186 0
8.922 9.714 0
9.078 9.714 0
9.222 9.186 0
9.22 8.52 0
9.482 8.666 0
9.818 8.234 0
9.74 8.052 0
9.26 8.148 0
12.78 11.48 0
12.518 11.334 0
12.182 11.766 0
12.26 11.948 0
12.74 11.852 0
13.22 11.48 0
13.26 11.852 0
13.74 11.948 0
13.818 11.766 0
13.482 11.334 0
13 8.96 0
12.778 9.186 0
12.922 9.714 0
13.078 9.714 0
13.222 9.186 0
13.22 8.52 0
13.482 8.666 0
13.818 8.234 0
13.74 8.052 0
13.26 8.148 0
15.22 12.52 0
15.56 12.38 0
15.74 12.052 0
15.26 12.148 0
14.78 12.52 0
14.74 12.148 0
14.26 12.052 0
14.182 12.234 0
14.518 12.666 0
15 15.04 0
15.04 14.58 0
14.922 14.286 0
14.778 14.814 0
14.78 15.48 0
14.518 15.334 0
14.182 15.766 0
14.48 15.8 0
11.22 12.52 0
11.482 12.666 0
11.818 12.234 0
11.74 12.052 0
11.26 12.148 0
10.78 12.52 0
10.74 12.148 0
10.26 12.052 0
10.182 12.234 0
10.518 12.666 0
11 15.04 0
11.222 14.814 0
11.078 14.286 0
10.922 14.286 0
10.778 14.814 0
10.78 15.48 0
10.518 15.334 0
10.182 15.766 0
10.48 15.8 0
7.22 12.52 0
7.482 12.666 0
7.818 12.234 0
7.74 12.052 0
7.26 12.148 0
6.78 12.52 0
6.74 12.148 0
6.26 12.052 0
6.182 12.234 0
6.518 12.666 0
7 15.04 0
7.222 14.814 0
7.078 14.286 0
6.922 14.286 0
6.778 14.814 0
6.78 15.48 0
6.518 15.334 0
6.182 15.766 0
6.48 15.8 0
3.22 12.52 0
3.482 12.666 0
3.818 12.234 0
3.74 12.052 0
3.26 12.148 0
2.78 12.52 0
2.74 12.148 0
2.26 12.052 0
2.182 12.234 0
2.518 12.666 0
3 15.04 0
3.222 14.814 0
3.078 14.286 0
2.922 14.286 0
2.778 14.814 0
2.78 15.48 0
2.518 15.334 0
2.182 15.766 0
2.48 15.8 0
1.596 1.048 0
1.364 2 0
1.596 2.952 0
2.182 3.662 0
3 3.904 0
3.818 3.662 0
4.404 2.952 0
4.636 2 0
4.404 1.048 0
3.598 0.486 0
2.402 0.486 0
5.596 1.048 0
5.364 2 0
5.596 2.952 0
6.182 3.662 0
7 3.904 0
7.818 3.662 0
8.404 2.952 0
8.636 2 0
8.404 1.048 0
7.598 0.486 0
6.402 0.486 0
9.596 1.048 0
9.364 2 0
9.596 2.952 0
10.182 3.662 0
11 3.904 0
11.818 3.662 0
12.404 2.952 0
12.636 2 0
12.404 1.048 0
11.598 0.486 0
10.402 0.486 0
13.596 1.048 0
13.364 2 0
13.596 2.952 0
14.182 3.662 0
15 3.904 0
15.78 3.368 0
16.12 2 0
15.56 0.78 0
14.402 0.486 0
14.404 6.952 0
14.636 6 0
14.404 5.048 0
13.818 4.338 0
13 4.096 0
12.182 4.338 0
11.596 5.048 0
11.364 6 0
11.596 6.952 0
12.182 7.662 0
13 7.904 0
13.818 7.662 0
10.404 6.952 0
10.636 6 0
10.404 5.048 0
9.818 4.338 0
9 4.096 0
8.182 4.338 0
7.596 5.048 0
7.364 6 0
7.596 6.952 0
8.182 7.662 0
9 7.904 0
9.818 7.662 0
6.404 6.952 0
6.636 6 0
6.404 5.048 0
5.818 4.338 0
5 4.096 0
4.182 4.338 0
3.596 5.048 0
3.364 6 0
3.596 6.952 0
4.182 7.662 0
5 7.904 0
5.818 7.662 0
2.404 6.952 0
2.636 6 0
2.404 5.048 0
1.818 4.338 0
1 4.096 0
0.22 4.632 0
-0.12 6 0
0.22 7.368 0
1 7.904 0
1.818 7.662 0
1.596 9.048 0
1.364 10 0
1.596 10.952 0
2.182 11.662 0
3 11.904 0
3.818 11.662 0
4.404 10.952 0
4.636 10 0
4.404 9.048 0
3.818 8.338 0
3 8.096 0
2.182 8.338 0
5.596 9.048 0
5.364 10 0
5.596 10.952 0
6.182 11.662 0
7 11.904 0
7.818 11.662 0
8.404 10.952 0
8.636 10 0
8.404 9.048 0
7.818 8.338 0
7 8.096 0
6.182 8.338 0
9.596 9.048 0
9.364 10 0
9.596 10.952 0
10.182 11.662 0
11 11.904 0
11.818 11.662 0
12.404 10.952 0
12.636 10 0
12.404 9.048 0
11.818 8.338 0
11 8.096 0
10.182 8.338 0
13.596 9.048 0
13.364 10 0
13.596 10.952 0
14.182 11.662 0
15 11.904 0
15.78 11.368 0
16.12 10 0
15.78 8.632 0
15 8.096 0
14.182 8.338 0
14.404 14.952 0
14.636 14 0
14.404 13.048 0
13.818 12.338 0
13 12.096 0
12.182 12.338 0
11.596 13.048 0
11.364 14 0
11.596 14.952 0
12.402 15.514 0
13.598 15.514 0
10.404 14.952 0
10.636 14 0
10.404 13.048 0
9.818 12.338 0
9 12.096 0
8.182 12.338 0
7.596 13.048 0
7.364 14 0
7.596 14.952 0
8.402 15.514 0
9.598 15.514 0
6.404 14.952 0
6.636 14 0
6.404 13.048 0
5.818 12.338 0
5 12.096 0
4.182 12.338 0
3.596 13.048 0
3.364 14 0
3.596 14.952 0
4.402 15.514 0
5.598 15.514 0
2.404 14.952 0
2.636 14 0
2.404 13.048 0
1.818 12.338 0
1 12.096 0
0.22 12.632 0
-0.12 14 0
0.44 15.22 0
1.598 15.514 0
6 62 339 162 780 161 486
3 65 338 337 0 0 1.0
3 63 69 68 0 0 1.0
6 59 343 173 791 172 505
3 71 342 341 0 0 1.0
3 60 347 346 0 0 1.0
6 56 352 184 802 183 524
3 77 351 350 0 0 1.0
3 57 356 355 0 0 1.0
6 53 361 195 813 194 543
3 83 360 359 0 0 1.0
3 54 365 364 0 0 1.0
6 50 370 204 822 203 560
3 89 369 368 0 0 1.0
3 23 373 372 0 0 1.0
6 47 378 216 834 215 580
3 95 377 376 0 0 1.0
3 26 382 381 0 0 1.0
6 44 388 228 846 227 600
3 101 387 386 0 0 1.0
3 29 392 391 0 0 1.0
6 41 398 240 858 239 620
3 107 397 396 0 0 1.0
3 32 402 401 0 0 1.0
6 34 408 250 868 249 638
3 113 407 406 0 0 1.0
3 116 411 410 0 0 1.0
6 31 416 262 880 261 658
3 119 415 414 0 0 1.0
3 122 420 419 0 0 1.0
6 28 426 274 892 273 678
3 125 425 424 0 0 1.0
3 128 430 429 0 0 1.0
6 25 436 286 904 285 698
3 131 435 434 0 0 1.0
3 134 440 439 0 0 1.0
6 20 446 296 914 295 716
3 137 445 444 0 0 1.0
3 21 141 140 0 0 1.0
6 15 450 307 925 306 735
3 143 449 448 0 0 1.0
3 16 454 453 0 0 1.0
6 10 459 318 936 317 754
3 149 458 457 0 0 1.0
3 11 463 462 0 0 1.0
6 5 468 329 947 328 773
3 155 467 466 0 0 1.0
3 6 472 471 0 0 1.0
3 66 476 475 0 0 1.0
3 67 480 479 0 0 1.0
6 479 65 337 66 475 67
3 69 485 484 0 0 1.0
3 70 489 488 0 0 1.0
5 488 68 69 484 70
3 72 493 492 0 0 1.0
3 73 498 497 0 0 1.0
6 497 71 341 72 492 73
3 75 503 502 0 0 1.0
3 76 508 507 0 0 1.0
6 507 74 349 75 502 76
3 78 512 511 0 0 1.0
3 79 517 516 0 0 1.0
6 516 77 350 78 511 79
3 81 522 521 0 0 1.0
3 82 527 526 0 0 1.0
6 526 80 358 81 521 82
3 84 531 530 0 0 1.0
3 85 536 535 0 0 1.0
6 535 83 359 84 530 85
3 87 541 540 0 0 1.0
3 88 546 545 0 0 1.0
6 545 86 367 87 540 88
3 90 550 549 0 0 1.0
3 91 554 553 0 0 1.0
6 553 89 368 90 549 91
3 93 559 558 0 0 1.0
3 94 563 562 0 0 1.0
6 562 92 374 93 558 94
3 96 568 567 0 0 1.0
3 97 573 572 0 0 1.0
6 572 95 376 96 567 97
3 99 578 577 0 0 1.0
3 100 583 582 0 0 1.0
6 582 98 384 99 577 100
3 102 588 587 0 0 1.0
3 103 593 592 0 0 1.0
6 592 101 386 102 587 103
3 105 598 597 0 0 1.0
3 106 603 602 0 0 1.0
6 602 104 394 105 597 106
3 108 608 607 0 0 1.0
3 109 613 612 0 0 1.0
6 612 107 396 108 607 109
3 111 618 617 0 0 1.0
3 112 623 622 0 0 1.0
6 622 110 404 111 617 112
3 114 628 627 0 0 1.0
3 115 632 631 0 0 1.0
6 631 113 406 114 627 115
3 117 637 636 0 0 1.0
3 118 641 640 0 0 1.0
6 640 116 410 117 636 118
3 120 646 645 0 0 1.0
3 121 651 650 0 0 1.0
6 650 119 414 120 645 121
3 123 656 655 0 0 1.0
3 124 661 660 0 0 1.0
6 660 122 419 123 655 124
3 126 666 665 0 0 1.0
3 127 671 670 0 0 1.0
6 670 125 424 126 665 127
3 129 676 675 0 0 1.0
3 130 681 680 0 0 1.0
6 680 128 429 129 675 130
3 132 686 685 0 0 1.0
3 133 691 690 0 0 1.0
6 690 131 434 132 685 133
3 135 696 695 0 0 1.0
3 136 701 700 0 0 1.0
6 700 134 439 135 695 136
3 138 706 705 0 0 1.0
3 139 710 709 0 0 1.0
6 709 137 444 138 705 139
3 141 715 714 0 0 1.0
3 142 719 718 0 0 1.0
5 718 140 141 714 142
3 144 723 722 0 0 1.0
3 145 728 727 0 0 1.0
6 727 143 448 144 722 145
3 147 733 732 0 0 1.0
3 148 738 737 0 0 1.0
6 737 146 456 147 732 148
3 150 742 741 0 0 1.0
3 151 747 746 0 0 1.0
6 746 149 457 150 741 151
3 153 752 751 0 0 1.0
3 154 757 756 0 0 1.0
6 756 152 465 153 751 154
3 156 761 760 0 0 1.0
3 157 766 765 0 0 1.0
6 765 155 466 156 760 157
3 159 771 770 0 0 1.0
3 160 776 775 0 0 1.0
6 775 158 474 159 770 160
6 162 338 65 483 163 781
6 163 482 39 614 164 782
6 164 613 109 611 165 783
6 165 610 40 494 166 784
6 166 493 72 345 167 785
6 167 344 59 504 168 786
6 168 503 75 348 169 787
5 169 347 60 170 788
5 170 64 490 171 789
6 171 489 70 487 161 779
3 779 161 780 0 0 1.0
6 173 342 71 501 174 792
6 174 500 42 594 175 793
6 175 593 103 591 176 794
6 176 590 43 513 177 795
6 177 512 78 354 178 796
6 178 353 56 523 179 797
6 179 522 81 357 180 798
5 180 356 57 181 799
5 181 61 509 182 800
6 182 508 76 506 172 790
3 790 172 791 0 0 1.0
6 184 351 77 520 185 803
6 185 519 45 574 186 804
6 186 573 97 571 187 805
6 187 570 46 532 188 806
6 188 531 84 363 189 807
6 189 362 53 542 190 808
6 190 541 87 366 191 809
5 191 365 54 192 810
5 192 58 528 193 811
6 193 527 82 525 183 801
3 801 183 802 0 0 1.0
6 195 360 83 539 196 814
6 196 538 48 555 197 815
6 197 554 91 552 198 816
5 198 551 49 199 817
4 199 52 200 818
4 200 51 201 819
5 201 55 547 202 820
6 202 546 88 544 194 812
3 812 194 813 0 0 1.0
6 204 369 89 557 205 823
6 205 556 48 537 206 824
6 206 536 85 534 207 825
6 207 533 46 569 208 826
6 208 568 96 380 209 827
6 209 379 47 579 210 828
6 210 578 99 383 211 829
6 211 382 26 441 212 830
6 212 440 134 704 213 831
6 213 703 27 564 214 832
6 214 563 94 561 203 821
3 821 203 822 0 0 1.0
6 216 377 95 576 217 835
6 217 575 45 518 218 836
6 218 517 79 515 219 837
6 219 514 43 589 220 838
6 220 588 102 390 221 839
6 221 389 44 599 222 840
6 222 598 105 393 223 841
6 223 392 29 431 224 842
6 224 430 128 684 225 843
6 225 683 30 584 226 844
6 226 583 100 581 215 833
3 833 215 834 0 0 1.0
6 228 387 101 596 229 847
6 229 595 42 499 230 848
6 230 498 73 496 231 849
6 231 495 40 609 232 850
6 232 608 108 400 233 851
6 233 399 41 619 234 852
6 234 618 111 403 235 853
6 235 402 32 421 236 854
6 236 420 122 664 237 855
6 237 663 33 604 238 856
6 238 603 106 601 227 845
3 845 227 846 0 0 1.0
6 240 397 107 616 241 859
6 241 615 39 481 242 860
6 242 480 67 478 243 861
5 243 477 38 244 862
4 244 37 245 863
5 245 35 412 246 864
6 246 411 116 644 247 865
6 247 643 36 624 248 866
6 248 623 112 621 239 857
3 857 239 858 0 0 1.0
6 250 407 113 635 251 869
6 251 634 3 767 252 870
6 252 766 157 764 253 871
6 253 763 4 647 254 872
6 254 646 120 418 255 873
6 255 417 31 657 256 874
6 256 656 123 423 257 875
6 257 422 32 401 258 876
6 258 405 110 626 259 877
6 259 625 36 642 260 878
6 260 641 118 639 249 867
3 867 249 868 0 0 1.0
6 262 415 119 654 263 881
6 263 653 8 748 264 882
6 264 747 151 745 265 883
6 265 744 9 667 266 884
6 266 666 126 428 267 885
6 267 427 28 677 268 886
6 268 676 129 433 269 887
6 269 432 29 391 270 888
6 270 395 104 606 271 889
6 271 605 33 662 272 890
6 272 661 124 659 261 879
3 879 261 880 0 0 1.0
6 274 425 125 674 275 893
6 275 673 13 729 276 894
6 276 728 145 726 277 895
6 277 725 14 687 278 896
6 278 686 132 438 279 897
6 279 437 25 697 280 898
6 280 696 135 443 281 899
6 281 442 26 381 282 900
6 282 385 98 586 283 901
6 283 585 30 682 284 902
6 284 681 130 679 273 891
3 891 273 892 0 0 1.0
6 286 435 131 694 287 905
6 287 693 18 711 288 906
6 288 710 139 708 289 907
5 289 707 19 290 908
4 290 24 291 909
5 291 23 372 292 910
6 292 375 92 566 293 911
6 293 565 27 702 294 912
6 294 701 136 699 285 903
3 903 285 904 0 0 1.0
6 296 445 137 713 297 915
6 297 712 18 692 298 916
6 298 691 133 689 299 917
6 299 688 14 724 300 918
6 300 723 144 452 301 919
6 301 451 15 734 302 920
6 302 733 147 455 303 921
5 303 454 16 304 922
5 304 22 720 305 923
6 305 719 142 717 295 913
3 913 295 914 0 0 1.0
6 307 449 143 731 308 926
6 308 730 13 672 309 927
6 309 671 127 669 310 928
6 310 668 9 743 311 929
6 311 742 150 461 312 930
6 312 460 10 753 313 931
6 313 752 153 464 314 932
5 314 463 11 315 933
5 315 17 739 316 934
6 316 738 148 736 306 924
3 924 306 925 0 0 1.0
6 318 458 149 750 319 937
6 319 749 8 652 320 938
6 320 651 121 649 321 939
6 321 648 4 762 322 940
6 322 761 156 470 323 941
6 323 469 5 772 324 942
6 324 771 159 473 325 943
5 325 472 6 326 944
5 326 12 758 327 945
6 327 757 154 755 317 935
3 935 317 936 0 0 1.0
6 329 467 155 769 330 948
6 330 768 3 633 331 949
6 331 632 115 630 332 950
5 332 629 2 333 951
4 333 1 334 952
4 334 0 335 953
5 335 7 777 336 954
6 336 776 160 774 328 946
3 946 328 947 0 0 1.0
3 338 162 339 0 0 1.0
3 339 62 340 0 0 1.0
3 340 66 337 0 0 1.0
4 337 338 339 340
3 342 173 343 0 0 1.0
3 343 59 344 0 0 1.0
3 344 167 345 0 0 1.0
3 345 72 341 0 0 1.0
5 341 342 343 344 345
3 347 169 348 0 0 1.0
3 348 75 349 0 0 1.0
3 349 74 346 0 0 1.0
4 346 347 348 349
3 351 184 352 0 0 1.0
3 352 56 353 0 0 1.0
3 353 178 354 0 0 1.0
3 354 78 350 0 0 1.0
5 350 351 352 353 354
3 356 180 357 0 0 1.0
3 357 81 358 0 0 1.0
3 358 80 355 0 0 1.0
4 355 356 357 358
3 360 195 361 0 0 1.0
3 361 53 362 0 0 1.0
3 362 189 363 0 0 1.0
3 363 84 359 0 0 1.0
5 359 360 361 362 363
3 365 191 366 0 0 1.0
3 366 87 367 0 0 1.0
3 367 86 364 0 0 1.0
4 364 365 366 367
3 369 204 370 0 0 1.0
3 370 50 371 0 0 1.0
3 371 90 368 0 0 1.0
4 368 369 370 371
3 373 93 374 0 0 1.0
3 374 92 375 0 0 1.0
3 375 292 372 0 0 1.0
4 372 373 374 375
3 377 216 378 0 0 1.0
3 378 47 379 0 0 1.0
3 379 209 380 0 0 1.0
3 380 96 376 0 0 1.0
5 376 377 378 379 380
3 382 211 383 0 0 1.0
3 383 99 384 0 0 1.0
3 384 98 385 0 0 1.0
3 385 282 381 0 0 1.0
5 381 382 383 384 385
3 387 228 388 0 0 1.0
3 388 44 389 0 0 1.0
3 389 221 390 0 0 1.0
3 390 102 386 0 0 1.0
5 386 387 388 389 390
3 392 223 393 0 0 1.0
3 393 105 394 0 0 1.0
3 394 104 395 0 0 1.0
3 395 270 391 0 0 1.0
5 391 392 393 394 395
3 397 240 398 0 0 1.0
3 398 41 399 0 0 1.0
3 399 233 400 0 0 1.0
3 400 108 396 0 0 1.0
5 396 397 398 399 400
3 402 235 403 0 0 1.0
3 403 111 404 0 0 1.0
3 404 110 405 0 0 1.0
3 405 258 401 0 0 1.0
5 401 402 403 404 405
3 407 250 408 0 0 1.0
3 408 34 409 0 0 1.0
3 409 114 406 0 0 1.0
4 406 407 408 409
3 411 246 412 0 0 1.0
3 412 35 413 0 0 1.0
3 413 117 410 0 0 1.0
4 410 411 412 413
3 415 262 416 0 0 1.0
3 416 31 417 0 0 1.0
3 417 255 418 0 0 1.0
3 418 120 414 0 0 1.0
5 414 415 416 417 418
3 420 236 421 0 0 1.0
3 421 32 422 0 0 1.0
3 422 257 423 0 0 1.0
3 423 123 419 0 0 1.0
5 419 420 421 422 423
3 425 274 426 0 0 1.0
3 426 28 427 0 0 1.0
3 427 267 428 0 0 1.0
3 428 126 424 0 0 1.0
5 424 425 426 427 428
3 430 224 431 0 0 1.0
3 431 29 432 0 0 1.0
3 432 269 433 0 0 1.0
3 433 129 429 0 0 1.0
5 429 430 431 432 433
3 435 286 436 0 0 1.0
3 436 25 437 0 0 1.0
3 437 279 438 0 0 1.0
3 438 132 434 0 0 1.0
5 434 435 436 437 438
3 440 212 441 0 0 1.0
3 441 26 442 0 0 1.0
3 442 281 443 0 0 1.0
3 443 135 439 0 0 1.0
5 439 440 441 442 443
3 445 296 446 0 0 1.0
3 446 20 447 0 0 1.0
3 447 138 444 0 0 1.0
4 444 445 446 447
3 449 307 450 0 0 1.0
3 450 15 451 0 0 1.0
3 451 301 452 0 0 1.0
3 452 144 448 0 0 1.0
5 448 449 450 451 452
3 454 303 455 0 0 1.0
3 455 147 456 0 0 1.0
3 456 146 453 0 0 1.0
4 453 454 455 456
3 458 318 459 0 0 1.0
3 459 10 460 0 0 1.0
3 460 312 461 0 0 1.0
3 461 150 457 0 0 1.0
5 457 458 459 460 461
3 463 314 464 0 0 1.0
3 464 153 465 0 0 1.0
3 465 152 462 0 0 1.0
4 462 463 464 465
3 467 329 468 0 0 1.0
3 468 5 469 0 0 1.0
3 469 323 470 0 0 1.0
3 470 156 466 0 0 1.0
5 466 467 468 469 470
3 472 325 473 0 0 1.0
3 473 159 474 0 0 1.0
3 474 158 471 0 0 1.0
4 471 472 473 474
3 476 38 477 0 0 1.0
3 477 243 478 0 0 1.0
3 478 67 475 0 0 1.0
4 475 476 477 478
3 480 242 481 0 0 1.0
3 481 39 482 0 0 1.0
3 482 163 483 0 0 1.0
3 483 65 479 0 0 1.0
5 479 480 481 482 483
3 485 62 486 0 0 1.0
3 486 161 487 0 0 1.0
3 487 70 484 0 0 1.0
4 484 485 486 487
3 489 171 490 0 0 1.0
3 490 64 491 0 0 1.0
3 491 68 488 0 0 1.0
4 488 489 490 491
3 493 166 494 0 0 1.0
3 494 40 495 0 0 1.0
3 495 231 496 0 0 1.0
3 496 73 492 0 0 1.0
5 492 493 494 495 496
3 498 230 499 0 0 1.0
3 499 42 500 0 0 1.0
3 500 174 501 0 0 1.0
3 501 71 497 0 0 1.0
5 497 498 499 500 501
3 503 168 504 0 0 1.0
3 504 59 505 0 0 1.0
3 505 172 506 0 0 1.0
3 506 76 502 0 0 1.0
5 502 503 504 505 506
3 508 182 509 0 0 1.0
3 509 61 510 0 0 1.0
3 510 74 507 0 0 1.0
4 507 508 509 510
3 512 177 513 0 0 1.0
3 513 43 514 0 0 1.0
3 514 219 515 0 0 1.0
3 515 79 511 0 0 1.0
5 511 512 513 514 515
3 517 218 518 0 0 1.0
3 518 45 519 0 0 1.0
3 519 185 520 0 0 1.0
3 520 77 516 0 0 1.0
5 516 517 518 519 520
3 522 179 523 0 0 1.0
3 523 56 524 0 0 1.0
3 524 183 525 0 0 1.0
3 525 82 521 0 0 1.0
5 521 522 523 524 525
3 527 193 528 0 0 1.0
3 528 58 529 0 0 1.0
3 529 80 526 0 0 1.0
4 526 527 528 529
3 531 188 532 0 0 1.0
3 532 46 533 0 0 1.0
3 533 207 534 0 0 1.0
3 534 85 530 0 0 1.0
5 530 531 532 533 534
3 536 206 537 0 0 1.0
3 537 48 538 0 0 1.0
3 538 196 539 0 0 1.0
3 539 83 535 0 0 1.0
5 535 536 537 538 539
3 541 190 542 0 0 1.0
3 542 53 543 0 0 1.0
3 543 194 544 0 0 1.0
3 544 88 540 0 0 1.0
5 540 541 542 543 544
3 546 202 547 0 0 1.0
3 547 55 548 0 0 1.0
3 548 86 545 0 0 1.0
4 545 546 547 548
3 550 49 551 0 0 1.0
3 551 198 552 0 0 1.0
3 552 91 549 0 0 1.0
4 549 550 551 552
3 554 197 555 0 0 1.0
3 555 48 556 0 0 1.0
3 556 205 557 0 0 1.0
3 557 89 553 0 0 1.0
5 553 554 555 556 557
3 559 50 560 0 0 1.0
3 560 203 561 0 0 1.0
3 561 94 558 0 0 1.0
4 558 559 560 561
3 563 214 564 0 0 1.0
3 564 27 565 0 0 1.0
3 565 293 566 0 0 1.0
3 566 92 562 0 0 1.0
5 562 563 564 565 566
3 568 208 569 0 0 1.0
3 569 46 570 0 0 1.0
3 570 187 571 0 0 1.0
3 571 97 567 0 0 1.0
5 567 568 569 570 571
3 573 186 574 0 0 1.0
3 574 45 575 0 0 1.0
3 575 217 576 0 0 1.0
3 576 95 572 0 0 1.0
5 572 573 574 575 576
3 578 210 579 0 0 1.0
3 579 47 580 0 0 1.0
3 580 215 581 0 0 1.0
3 581 100 577 0 0 1.0
5 577 578 579 580 581
3 583 226 584 0 0 1.0
3 584 30 585 0 0 1.0
3 585 283 586 0 0 1.0
3 586 98 582 0 0 1.0
5 582 583 584 585 586
3 588 220 589 0 0 1.0
3 589 43 590 0 0 1.0
3 590 176 591 0 0 1.0
3 591 103 587 0 0 1.0
5 587 588 589 590 591
3 593 175 594 0 0 1.0
3 594 42 595 0 0 1.0
3 595 229 596 0 0 1.0
3 596 101 592 0 0 1.0
5 592 593 594 595 596
3 598 222 599 0 0 1.0
3 599 44 600 0 0 1.0
3 600 227 601 0 0 1.0
3 601 106 597 0 0 1.0
5 597 598 599 600 601
3 603 238 604 0 0 1.0
3 604 33 605 0 0 1.0
3 605 271 606 0 0 1.0
3 606 104 602 0 0 1.0
5 602 603 604 605 606
3 608 232 609 0 0 1.0
3 609 40 610 0 0 1.0
3 610 165 611 0 0 1.0
3 611 109 607 0 0 1.0
5 607 608 609 610 611
3 613 164 614 0 0 1.0
3 614 39 615 0 0 1.0
3 615 241 616 0 0 1.0
3 616 107 612 0 0 1.0
5 612 613 614 615 616
3 618 234 619 0 0 1.0
3 619 41 620 0 0 1.0
3 620 239 621 0 0 1.0
3 621 112 617 0 0 1.0
5 617 618 619 620 621
3 623 248 624 0 0 1.0
3 624 36 625 0 0 1.0
3 625 259 626 0 0 1.0
3 626 110 622 0 0 1.0
5 622 623 624 625 626
3 628 2 629 0 0 1.0
3 629 332 630 0 0 1.0
3 630 115 627 0 0 1.0
4 627 628 629 630
3 632 331 633 0 0 1.0
3 633 3 634 0 0 1.0
3 634 251 635 0 0 1.0
3 635 113 631 0 0 1.0
5 631 632 633 634 635
3 637 34 638 0 0 1.0
3 638 249 639 0 0 1.0
3 639 118 636 0 0 1.0
4 636 637 638 639
3 641 260 642 0 0 1.0
3 642 36 643 0 0 1.0
3 643 247 644 0 0 1.0
3 644 116 640 0 0 1.0
5 640 641 642 643 644
3 646 254 647 0 0 1.0
3 647 4 648 0 0 1.0
3 648 321 649 0 0 1.0
3 649 121 645 0 0 1.0
5 645 646 647 648 649
3 651 320 652 0 0 1.0
3 652 8 653 0 0 1.0
3 653 263 654 0 0 1.0
3 654 119 650 0 0 1.0
5 650 651 652 653 654
3 656 256 657 0 0 1.0
3 657 31 658 0 0 1.0
3 658 261 659 0 0 1.0
3 659 124 655 0 0 1.0
5 655 656 657 658 659
3 661 272 662 0 0 1.0
3 662 33 663 0 0 1.0
3 663 237 664 0 0 1.0
3 664 122 660 0 0 1.0
5 660 661 662 663 664
3 666 266 667 0 0 1.0
3 667 9 668 0 0 1.0
3 668 310 669 0 0 1.0
3 669 127 665 0 0 1.0
5 665 666 667 668 669
3 671 309 672 0 0 1.0
3 672 13 673 0 0 1.0
3 673 275 674 0 0 1.0
3 674 125 670 0 0 1.0
5 670 671 672 673 674
3 676 268 677 0 0 1.0
3 677 28 678 0 0 1.0
3 678 273 679 0 0 1.0
3 679 130 675 0 0 1.0
5 675 676 677 678 679
3 681 284 682 0 0 1.0
3 682 30 683 0 0 1.0
3 683 225 684 0 0 1.0
3 684 128 680 0 0 1.0
5 680 681 682 683 684
3 686 278 687 0 0 1.0
3 687 14 688 0 0 1.0
3 688 299 689 0 0 1.0
3 689 133 685 0 0 1.0
5 685 686 687 688 689
3 691 298 692 0 0 1.0
3 692 18 693 0 0 1.0
3 693 287 694 0 0 1.0
3 694 131 690 0 0 1.0
5 690 691 692 693 694
3 696 280 697 0 0 1.0
3 697 25 698 0 0 1.0
3 698 285 699 0 0 1.0
3 699 136 695 0 0 1.0
5 695 696 697 698 699
3 701 294 702 0 0 1.0
3 702 27 703 0 0 1.0
3 703 213 704 0 0 1.0
3 704 134 700 0 0 1.0
5 700 701 702 703 704
3 706 19 707 0 0 1.0
3 707 289 708 0 0 1.0
3 708 139 705 0 0 1.0
4 705 706 707 708
3 710 288 711 0 0 1.0
3 711 18 712 0 0 1.0
3 712 297 713 0 0 1.0
3 713 137 709 0 0 1.0
5 709 710 711 712 713
3 715 20 716 0 0 1.0
3 716 295 717 0 0 1.0
3 717 142 714 0 0 1.0
4 714 715 716 717
3 719 305 720 0 0 1.0
3 720 22 721 0 0 1.0
3 721 140 718 0 0 1.0
4 718 719 720 721
3 723 300 724 0 0 1.0
3 724 14 725 0 0 1.0
3 725 277 726 0 0 1.0
3 726 145 722 0 0 1.0
5 722 723 724 725 726
3 728 276 729 0 0 1.0
3 729 13 730 0 0 1.0
3 730 308 731 0 0 1.0
3 731 143 727 0 0 1.0
5 727 728 729 730 731
3 733 302 734 0 0 1.0
3 734 15 735 0 0 1.0
3 735 306 736 0 0 1.0
3 736 148 732 0 0 1.0
5 732 733 734 735 736
3 738 316 739 0 0 1.0
3 739 17 740 0 0 1.0
3 740 146 737 0 0 1.0
4 737 738 739 740
3 742 311 743 0 0 1.0
3 743 9 744 0 0 1.0
3 744 265 745 0 0 1.0
3 745 151 741 0 0 1.0
5 741 742 743 744 745
3 747 264 748 0 0 1.0
3 748 8 749 0 0 1.0
3 749 319 750 0 0 1.0
3 750 149 746 0 0 1.0
5 746 747 748 749 750
3 752 313 753 0 0 1.0
3 753 10 754 0 0 1.0
3 754 317 755 0 0 1.0
3 755 154 751 0 0 1.0
5 751 752 753 754 755
3 757 327 758 0 0 1.0
3 758 12 759 0 0 1.0
3 759 152 756 0 0 1.0
4 756 757 758 759
3 761 322 762 0 0 1.0
3 762 4 763 0 0 1.0
3 763 253 764 0 0 1.0
3 764 157 760 0 0 1.0
5 760 761 762 763 764
3 766 252 767 0 0 1.0
3 767 3 768 0 0 1.0
3 768 330 769 0 0 1.0
3 769 155 765 0 0 1.0
5 765 766 767 768 769
3 771 324 772 0 0 1.0
3 772 5 773 0 0 1.0
3 773 328 774 0 0 1.0
3 774 160 770 0 0 1.0
5 770 771 772 773 774
3 776 336 777 0 0 1.0
3 777 7 778 0 0 1.0
3 778 158 775 0 0 1.0
4 775 776 777 778
3 780 162 781 0 0 1.0
3 781 163 782 0 0 1.0
3 782 164 783 0 0 1.0
3 783 165 784 0 0 1.0
3 784 166 785 0 0 1.0
3 785 167 786 0 0 1.0
3 786 168 787 0 0 1.0
3 787 169 788 0 0 1.0
3 788 170 789 0 0 1.0
3 789 171 779 0 0 1.0
11 779 780 781 782 783 784 785 786 787 788 789
3 791 173 792 0 0 1.0
3 792 174 793 0 0 1.0
3 793 175 794 0 0 1.0
3 794 176 795 0 0 1.0
3 795 177 796 0 0 1.0
3 796 178 797 0 0 1.0
3 797 179 798 0 0 1.0
3 798 180 799 0 0 1.0
3 799 181 800 0 0 1.0
3 800 182 790 0 0 1.0
11 790 791 792 793 794 795 796 797 798 799 800
3 802 184 803 0 0 1.0
3 803 185 804 0 0 1.0
3 804 186 805 0 0 1.0
3 805 187 806 0 0 1.0
3 806 188 807 0 0 1.0
3 807 189 808 0 0 1.0
3 808 190 809 0 0 1.0
3 809 191 810 0 0 1.0
3 810 192 811 0 0 1.0
3 811 193 801 0 0 1.0
11 801 802 803 804 805 806 807 808 809 810 811
3 813 195 814 0 0 1.0
3 814 196 815 0 0 1.0
3 815 197 816 0 0 1.0
3 816 198 817 0 0 1.0
3 817 199 818 0 0 1.0
3 818 200 819 0 0 1.0
3 819 201 820 0 0 1.0
3 820 202 812 0 0 1.0
9 812 813 814 815 816 817 818 819 820
3 822 204 823 0 0 1.0
3 823 205 824 0 0 1.0
3 824 206 825 0 0 1.0
3 825 207 826 0 0 1.0
3 826 208 827 0 0 1.0
3 827 209 828 0 0 1.0
3 828 210 829 0 0 1.0
3 829 211 830 0 0 1.0
3 830 212 831 0 0 1.0
3 831 213 832 0 0 1.0
3 832 214 821 0 0 1.0
12 821 822 823 824 825 826 827 828 829 830 831 832
3 834 216 835 0 0 1.0
3 835 217 836 0 0 1.0
3 836 218 837 0 0 1.0
3 837 219 838 0 0 1.0
3 838 220 839 0 0 1.0
3 839 221 840 0 0 1.0
3 840 222 841 0 0 1.0
3 841 223 842 0 0 1.0
3 842 224 843 0 0 1.0
3 843 225 844 0 0 1.0
3 844 226 833 0 0 1.0
12 833 834 835 836 837 838 839 840 841 842 843 844
3 846 228 847 0 0 1.0
3 847 229 848 0 0 1.0
3 848 230 849 0 0 1.0
3 849 231 850 0 0 1.0
3 850 232 851 0 0 1.0
3 851 233 852 0 0 1.0
3 852 234 853 0 0 1.0
3 853 235 854 0 0 1.0
3 854 236 855 0 0 1.0
3 855 237 856 0 0 1.0
3 856 238 845 0 0 1.0
12 845 846 847 848 849 850 851 852 853 854 855 856
3 858 240 859 0 0 1.0
3 859 241 860 0 0 1.0
3 860 242 861 0 0 1.0
3 861 243 862 0 0 1.0
3 862 244 863 0 0 1.0
3 863 245 864 0 0 1.0
3 864 246 865 0 0 1.0
3 865 247 866 0 0 1.0
3 866 248 857 0 0 1.0
10 857 858 859 860 861 862 863 864 865 866
3 868 250 869 0 0 1.0
3 869 251 870 0 0 1.0
3 870 252 871 0 0 1.0
3 871 253 872 0 0 1.0
3 872 254 873 0 0 1.0
3 873 255 874 0 0 1.0
3 874 256 875 0 0 1.0
3 875 257 876 0 0 1.0
3 876 258 877 0 0 1.0
3 877 259 878 0 0 1.0
3 878 260 867 0 0 1.0
12 867 868 869 870 871 872 873 874 875 876 877 878
3 880 262 881 0 0 1.0
3 881 263 882 0 0 1.0
3 882 264 883 0 0 1.0
3 883 265 884 0 0 1.0
3 884 266 885 0 0 1.0
3 885 267 886 0 0 1.0
3 886 268 887 0 0 1.0
3 887 269 888 0 0 1.0
3 888 270 889 0 0 1.0
3 889 271 890 0 0 1.0
3 890 272 879 0 0 1.0
12 879 880 881 882 883 884 885 886 887 888 889 890
3 892 274 893 0 0 1.0
3 893 275 894 0 0 1.0
3 894 276 895 0 0 1.0
3 895 277 896 0 0 1.0
3 896 278 897 0 0 1.0
3 897 279 898 0 0 1.0
3 898 280 899 0 0 1.0
3 899 281 900 0 0 1.0
3 900 282 901 0 0 1.0
3 901 283 902 0 0 1.0
3 902 284 891 0 0 1.0
12 891 892 893 894 895 896 897 898 899 900 901 902
3 904 286 905 0 0 1.0
3 905 287 906 0 0 1.0
3 906 288 907 0 0 1.0
3 907 289 908 0 0 1.0
3 908 290 909 0 0 1.0
3 909 291 910 0 0 1.0
3 910 292 911 0 0 1.0
3 911 293 912 0 0 1.0
3 912 294 903 0 0 1.0
10 903 904 905 906 907 908 909 910 911 912
3 914 296 915 0 0 1.0
3 915 297 916 0 0 1.0
3 916 298 917 0 0 1.0
3 917 299 918 0 0 1.0
3 918 300 919 0 0 1.0
3 919 301 920 0 0 1.0
3 920 302 921 0 0 1.0
3 921 303 922 0 0 1.0
3 922 304 923 0 0 1.0
3 923 305 913 0 0 1.0
11 913 914 915 916 917 918 919 920 921 922 923
3 925 307 926 0 0 1.0
3 926 308 927 0 0 1.0
3 927 309 928 0 0 1.0
3 928 310 929 0 0 1.0
3 929 311 930 0 0 1.0
3 930 312 931 0 0 1.0
3 931 313 932 0 0 1.0
3 932 314 933 0 0 1.0
3 933 315 934 0 0 1.0
3 934 316 924 0 0 1.0
11 924 925 926 927 928 929 930 931 932 933 934
3 936 318 937 0 0 1.0
3 937 319 938 0 0 1.0
3 938 320 939 0 0 1.0
3 939 321 940 0 0 1.0
3 940 322 941 0 0 1.0
3 941 323 942 0 0 1.0
3 942 324 943 0 0 1.0
3 943 325 944 0 0 1.0
3 944 326 945 0 0 1.0
3 945 327 935 0 0 1.0
11 935 936 937 938 939 940 941 942 943 944 945
3 947 329 948 0 0 1.0
3 948 330 949 0 0 1.0
3 949 331 950 0 0 1.0
3 950 332 951 0 0 1.0
3 951 333 952 0 0 1.0
3 952 334 953 0 0 1.0
3 953 335 954 0 0 1.0
3 954 336 946 0 0 1.0
9 946 947 948 949 950 951 952 953 954
