OFF
449 432 0
0 16 0
-1 14 0
0 12 0
2 12 0
4 12 0
3 14 0
4 16 0
2 16 0
6 12 0
8 12 0
7 14 0
8 16 0
6 16 0
10 12 0
12 12 0
11 14 0
12 16 0
10 16 0
14 12 0
16 12 0
15 14 0
16 16 0
14 16 0
16 8 0
17 10 0
13 10 0
12 8 0
14 8 0
9 10 0
8 8 0
10 8 0
5 10 0
4 8 0
6 8 0
1 10 0
0 8 0
2 8 0
-1 6 0
0 4 0
2 4 0
4 4 0
3 6 0
6 4 0
8 4 0
7 6 0
10 4 0
12 4 0
11 6 0
14 4 0
16 4 0
15 6 0
16 -3.57073e-07 0
17 2 0
13 2 0
12 -1.68587e-07 0
14 -2.6283e-07 0
9 2 0
8 -8.42937e-08 0
10 -1.26441e-07 0
5 2 0
4 0 0
6 -4.21468e-08 0
1 2 0
0 0 0
2 0 0
1.3 3.1 0
0.7 3.1 0
1 3.8 0
1 0.2 0
0.7 0.9 0
1.3 0.9 0
5.3 3.1 0
4.7 3.1 0
5 3.8 0
5 0.2 0
4.7 0.9 0
5.3 0.9 0
9.3 3.1 0
8.7 3.1 0
9 3.8 0
9 0.2 0
8.7 0.9 0
9.3 0.9 0
13.3 3.1 0
12.7 3.1 0
13 3.8 0
13 0.2 0
12.7 0.9 0
13.3 0.9 0
14.7 4.9 0
15.3 4.9 0
15 4.2 0
15 7.8 0
15.3 7.1 0
14.7 7.1 0
10.7 4.9 0
11.3 4.9 0
11 4.2 0
11 7.8 0
11.3 7.1 0
10.7 7.1 0
6.7 4.9 0
7.3 4.9 0
7 4.2 0
7 7.8 0
7.3 7.1 0
6.7 7.1 0
2.7 4.9 0
3.3 4.9 0
3 4.2 0
3 7.8 0
3.3 7.1 0
2.7 7.1 0
1.3 11.1 0
0.7 11.1 0
1 11.8 0
1 8.2 0
0.7 8.9 0
1.3 8.9 0
5.3 11.1 0
4.7 11.1 0
5 11.8 0
5 8.2 0
4.7 8.9 0
5.3 8.9 0
9.3 11.1 0
8.7 11.1 0
9 11.8 0
9 8.2 0
8.7 8.9 0
9.3 8.9 0
13.3 11.1 0
12.7 11.1 0
13 11.8 0
13 8.2 0
12.7 8.9 0
13.3 8.9 0
14.7 12.9 0
15.3 12.9 0
15 12.2 0
15 15.8 0
15.3 15.1 0
14.7 15.1 0
10.7 12.9 0
11.3 12.9 0
11 12.2 0
11 15.8 0
11.3 15.1 0
10.7 15.1 0
6.7 12.9 0
7.3 12.9 0
7 12.2 0
7 15.8 0
7.3 15.1 0
6.7 15.1 0
2.7 12.9 0
3.3 12.9 0
3 12.2 0
3 15.8 0
3.3 15.1 0
2.7 15.1 0
1 3.04 0
1.04 2.58 0
0.96 2.58 0
0.48 0.2 0
0.44 0.38 0
0.78 0.52 0
5 3.04 0
5.04 2.58 0
4.96 2.58 0
4.48 0.2 0
4.44 0.38 0
4.78 0.52 0
9 3.04 0
9.04 2.58 0
8.96 2.58 0
8.48 0.2 0
8.44 0.38 0
8.78 0.52 0
13 3.04 0
13.04 2.58 0
12.96 2.58 0
12.48 0.2 0
12.44 0.38 0
12.78 0.52 0
15 4.96 0
14.96 5.42 0
15.04 5.42 0
15.52 7.8 0
15.56 7.62 0
15.22 7.48 0
11 4.96 0
10.96 5.42 0
11.04 5.42 0
11.52 7.8 0
11.56 7.62 0
11.22 7.48 0
7 4.96 0
6.96 5.42 0
7.04 5.42 0
7.52 7.8 0
7.56 7.62 0
7.22 7.48 0
3 4.96 0
2.96 5.42 0
3.04 5.42 0
3.52 7.8 0
3.56 7.62 0
3.22 7.48 0
1 11.04 0
1.04 10.58 0
0.96 10.58 0
0.78 8.52 0
0.48 8.2 0
0.44 8.38 0
5 11.04 0
5.04 10.58 0
4.96 10.58 0
4.78 8.52 0
4.48 8.2 0
4.44 8.38 0
9 11.04 0
9.04 10.58 0
8.96 10.58 0
8.78 8.52 0
8.48 8.2 0
8.44 8.38 0
13 11.04 0
13.04 10.58 0
12.96 10.58 0
12.78 8.52 0
12.48 8.2 0
12.44 8.38 0
15 12.96 0
14.96 13.42 0
15.04 13.42 0
15.52 15.8 0
15.56 15.62 0
15.22 15.48 0
11 12.96 0
10.96 13.42 0
11.04 13.42 0
11.52 15.8 0
11.56 15.62 0
11.22 15.48 0
7 12.96 0
6.96 13.42 0
7.04 13.42 0
7.52 15.8 0
7.56 15.62 0
7.22 15.48 0
3 12.96 0
2.96 13.42 0
3.04 13.42 0
3.52 15.8 0
3.56 15.62 0
3.22 15.48 0
0.78 3.48 0
0.44 3.62 0
0.48 3.8 0
1.22 3.48 0
1.52 3.8 0
1.56 3.62 0
1 0.96 0
0.96 1.42 0
1.04 1.42 0
1.22 0.52 0
1.56 0.38 0
1.52 0.2 0
4.78 3.48 0
4.44 3.62 0
4.48 3.8 0
5.22 3.48 0
5.52 3.8 0
5.56 3.62 0
5 0.96 0
4.96 1.42 0
5.04 1.42 0
5.22 0.52 0
5.56 0.38 0
5.52 0.2 0
8.78 3.48 0
8.44 3.62 0
8.48 3.8 0
9.22 3.48 0
9.52 3.8 0
9.56 3.62 0
9 0.96 0
8.96 1.42 0
9.04 1.42 0
9.22 0.52 0
9.56 0.38 0
9.52 0.2 0
12.78 3.48 0
12.44 3.62 0
12.48 3.8 0
13.22 3.48 0
13.52 3.8 0
13.56 3.62 0
13 0.96 0
12.96 1.42 0
13.04 1.42 0
13.22 0.52 0
13.56 0.38 0
13.52 0.2 0
15.22 4.52 0
15.56 4.38 0
15.52 4.2 0
14.78 4.52 0
14.48 4.2 0
14.44 4.38 0
15 7.04 0
15.04 6.58 0
14.96 6.58 0
14.78 7.48 0
14.44 7.62 0
14.48 7.8 0
11.22 4.52 0
11.56 4.38 0
11.52 4.2 0
10.78 4.52 0
10.48 4.2 0
10.44 4.38 0
11 7.04 0
11.04 6.58 0
10.96 6.58 0
10.78 7.48 0
10.44 7.62 0
10.48 7.8 0
7.22 4.52 0
7.56 4.38 0
7.52 4.2 0
6.78 4.52 0
6.48 4.2 0
6.44 4.38 0
7 7.04 0
7.04 6.58 0
6.96 6.58 0
6.78 7.48 0
6.44 7.62 0
6.48 7.8 0
3.22 4.52 0
3.56 4.38 0
3.52 4.2 0
2.78 4.52 0
2.48 4.2 0
2.44 4.38 0
3 7.04 0
3.04 6.58 0
2.96 6.58 0
2.78 7.48 0
2.44 7.62 0
2.48 7.8 0
0.78 11.48 0
0.44 11.62 0
0.48 11.8 0
1.22 11.48 0
1.52 11.8 0
1.56 11.62 0
1 8.96 0
0.96 9.42 0
1.04 9.42 0
1.22 8.52 0
1.56 8.38 0
1.52 8.2 0
4.78 11.48 0
4.44 11.62 0
4.48 11.8 0
5.22 11.48 0
5.52 11.8 0
5.56 11.62 0
5 8.96 0
4.96 9.42 0
5.04 9.42 0
5.22 8.52 0
5.56 8.38 0
5.52 8.2 0
8.78 11.48 0
8.44 11.62 0
8.48 11.8 0
9.22 11.48 0
9.52 11.8 0
9.56 11.62 0
9 8.96 0
8.96 9.42 0
9.04 9.42 0
9.22 8.52 0
9.56 8.38 0
9.52 8.2 0
12.78 11.48 0
12.44 11.62 0
12.48 11.8 0
13.22 11.48 0
13.52 11.8 0
13.56 11.62 0
13 8.96 0
12.96 9.42 0
13.04 9.42 0
13.22 8.52 0
13.56 8.38 0
13.52 8.2 0
15.22 12.52 0
15.56 12.38 0
15.52 12.2 0
14.78 12.52 0
14.48 12.2 0
14.44 12.38 0
15 15.04 0
15.04 14.58 0
14.96 14.58 0
14.78 15.48 0
14.44 15.62 0
14.48 15.8 0
11.22 12.52 0
11.56 12.38 0
11.52 12.2 0
10.78 12.52 0
10.48 12.2 0
10.44 12.38 0
11 15.04 0
11.04 14.58 0
10.96 14.58 0
10.78 15.48 0
10.44 15.62 0
10.48 15.8 0
7.22 12.52 0
7.56 12.38 0
7.52 12.2 0
6.78 12.52 0
6.48 12.2 0
6.44 12.38 0
7 15.04 0
7.04 14.58 0
6.96 14.58 0
6.78 15.48 0
6.44 15.62 0
6.48 15.8 0
3.22 12.52 0
3.56 12.38 0
3.52 12.2 0
2.78 12.52 0
2.48 12.2 0
2.44 12.38 0
3 15.04 0
3.04 14.58 0
2.96 14.58 0
2.78 15.48 0
2.44 15.62 0
2.48 15.8 0
21 62 162 65 262 39 345 109 343 40 270 72 169 59 276 75 171 60 64 267 70 265 
3 65 162 161 
3 63 165 164 
21 59 168 71 274 42 333 103 331 43 282 78 175 56 288 81 177 57 61 279 76 277 
3 71 168 167 
3 60 171 170 
21 56 174 77 286 45 321 97 319 46 294 84 181 53 300 87 183 54 58 291 82 289 
3 77 174 173 
3 57 177 176 
15 53 180 83 298 48 309 91 307 49 52 51 55 303 88 301 
3 83 180 179 
3 54 183 182 
24 50 186 89 310 48 297 85 295 46 318 96 193 47 324 99 195 26 231 134 400 27 315 94 313 
3 89 186 185 
3 23 189 188 
24 47 192 95 322 45 285 79 283 43 330 102 199 44 336 105 201 29 225 128 388 30 327 100 325 
3 95 192 191 
3 26 195 194 
24 44 198 101 334 42 273 73 271 40 342 108 205 41 348 111 207 32 219 122 376 33 339 106 337 
3 101 198 197 
3 29 201 200 
18 41 204 107 346 39 261 67 259 38 37 35 213 116 364 36 351 112 349 
3 107 204 203 
3 32 207 206 
24 34 210 113 358 3 441 157 439 4 366 120 217 31 372 123 220 32 206 110 352 36 363 118 361 
3 113 210 209 
3 116 213 212 
24 31 216 119 370 8 429 151 427 9 378 126 223 28 384 129 226 29 200 104 340 33 375 124 373 
3 119 216 215 
3 122 219 218 
24 28 222 125 382 13 417 145 415 14 390 132 229 25 396 135 232 26 194 98 328 30 387 130 385 
3 125 222 221 
3 128 225 224 
18 25 228 131 394 18 405 139 403 19 24 23 188 92 316 27 399 136 397 
3 131 228 227 
3 134 231 230 
21 20 234 137 406 18 393 133 391 14 414 144 241 15 420 147 243 16 22 411 142 409 
3 137 234 233 
3 21 237 236 
21 15 240 143 418 13 381 127 379 9 426 150 247 10 432 153 249 11 17 423 148 421 
3 143 240 239 
3 16 243 242 
21 10 246 149 430 8 369 121 367 4 438 156 253 5 444 159 255 6 12 435 154 433 
3 149 246 245 
3 11 249 248 
15 5 252 155 442 3 357 115 355 2 1 0 7 447 160 445 
3 155 252 251 
3 6 255 254 
3 66 258 257 
3 67 261 260 
6 260 65 161 66 257 67 
3 69 264 263 
3 70 267 266 
6 266 68 166 69 263 70 
3 72 270 269 
3 73 273 272 
6 272 71 167 72 269 73 
3 75 276 275 
3 76 279 278 
6 278 74 172 75 275 76 
3 78 282 281 
3 79 285 284 
6 284 77 173 78 281 79 
3 81 288 287 
3 82 291 290 
6 290 80 178 81 287 82 
3 84 294 293 
3 85 297 296 
6 296 83 179 84 293 85 
3 87 300 299 
3 88 303 302 
6 302 86 184 87 299 88 
3 90 306 305 
3 91 309 308 
6 308 89 185 90 305 91 
3 93 312 311 
3 94 315 314 
6 314 92 190 93 311 94 
3 96 318 317 
3 97 321 320 
6 320 95 191 96 317 97 
3 99 324 323 
3 100 327 326 
6 326 98 196 99 323 100 
3 102 330 329 
3 103 333 332 
6 332 101 197 102 329 103 
3 105 336 335 
3 106 339 338 
6 338 104 202 105 335 106 
3 108 342 341 
3 109 345 344 
6 344 107 203 108 341 109 
3 111 348 347 
3 112 351 350 
6 350 110 208 111 347 112 
3 114 354 353 
3 115 357 356 
6 356 113 209 114 353 115 
3 117 360 359 
3 118 363 362 
6 362 116 212 117 359 118 
3 120 366 365 
3 121 369 368 
6 368 119 215 120 365 121 
3 123 372 371 
3 124 375 374 
6 374 122 218 123 371 124 
3 126 378 377 
3 127 381 380 
6 380 125 221 126 377 127 
3 129 384 383 
3 130 387 386 
6 386 128 224 129 383 130 
3 132 390 389 
3 133 393 392 
6 392 131 227 132 389 133 
3 135 396 395 
3 136 399 398 
6 398 134 230 135 395 136 
3 138 402 401 
3 139 405 404 
6 404 137 233 138 401 139 
3 141 408 407 
3 142 411 410 
6 410 140 238 141 407 142 
3 144 414 413 
3 145 417 416 
6 416 143 239 144 413 145 
3 147 420 419 
3 148 423 422 
6 422 146 244 147 419 148 
3 150 426 425 
3 151 429 428 
6 428 149 245 150 425 151 
3 153 432 431 
3 154 435 434 
6 434 152 250 153 431 154 
3 156 438 437 
3 157 441 440 
6 440 155 251 156 437 157 
3 159 444 443 
3 160 447 446 
6 446 158 256 159 443 160 
3 162 62 163 
3 163 66 161 
3 161 162 163 
3 165 69 166 
3 166 68 164 
3 164 165 166 
3 168 59 169 
3 169 72 167 
3 167 168 169 
3 171 75 172 
3 172 74 170 
3 170 171 172 
3 174 56 175 
3 175 78 173 
3 173 174 175 
3 177 81 178 
3 178 80 176 
3 176 177 178 
3 180 53 181 
3 181 84 179 
3 179 180 181 
3 183 87 184 
3 184 86 182 
3 182 183 184 
3 186 50 187 
3 187 90 185 
3 185 186 187 
3 189 93 190 
3 190 92 188 
3 188 189 190 
3 192 47 193 
3 193 96 191 
3 191 192 193 
3 195 99 196 
3 196 98 194 
3 194 195 196 
3 198 44 199 
3 199 102 197 
3 197 198 199 
3 201 105 202 
3 202 104 200 
3 200 201 202 
3 204 41 205 
3 205 108 203 
3 203 204 205 
3 207 111 208 
3 208 110 206 
3 206 207 208 
3 210 34 211 
3 211 114 209 
3 209 210 211 
3 213 35 214 
3 214 117 212 
3 212 213 214 
3 216 31 217 
3 217 120 215 
3 215 216 217 
3 219 32 220 
3 220 123 218 
3 218 219 220 
3 222 28 223 
3 223 126 221 
3 221 222 223 
3 225 29 226 
3 226 129 224 
3 224 225 226 
3 228 25 229 
3 229 132 227 
3 227 228 229 
3 231 26 232 
3 232 135 230 
3 230 231 232 
3 234 20 235 
3 235 138 233 
3 233 234 235 
3 237 141 238 
3 238 140 236 
3 236 237 238 
3 240 15 241 
3 241 144 239 
3 239 240 241 
3 243 147 244 
3 244 146 242 
3 242 243 244 
3 246 10 247 
3 247 150 245 
3 245 246 247 
3 249 153 250 
3 250 152 248 
3 248 249 250 
3 252 5 253 
3 253 156 251 
3 251 252 253 
3 255 159 256 
3 256 158 254 
3 254 255 256 
3 258 38 259 
3 259 67 257 
3 257 258 259 
3 261 39 262 
3 262 65 260 
3 260 261 262 
3 264 62 265 
3 265 70 263 
3 263 264 265 
3 267 64 268 
3 268 68 266 
3 266 267 268 
3 270 40 271 
3 271 73 269 
3 269 270 271 
3 273 42 274 
3 274 71 272 
3 272 273 274 
3 276 59 277 
3 277 76 275 
3 275 276 277 
3 279 61 280 
3 280 74 278 
3 278 279 280 
3 282 43 283 
3 283 79 281 
3 281 282 283 
3 285 45 286 
3 286 77 284 
3 284 285 286 
3 288 56 289 
3 289 82 287 
3 287 288 289 
3 291 58 292 
3 292 80 290 
3 290 291 292 
3 294 46 295 
3 295 85 293 
3 293 294 295 
3 297 48 298 
3 298 83 296 
3 296 297 298 
3 300 53 301 
3 301 88 299 
3 299 300 301 
3 303 55 304 
3 304 86 302 
3 302 303 304 
3 306 49 307 
3 307 91 305 
3 305 306 307 
3 309 48 310 
3 310 89 308 
3 308 309 310 
3 312 50 313 
3 313 94 311 
3 311 312 313 
3 315 27 316 
3 316 92 314 
3 314 315 316 
3 318 46 319 
3 319 97 317 
3 317 318 319 
3 321 45 322 
3 322 95 320 
3 320 321 322 
3 324 47 325 
3 325 100 323 
3 323 324 325 
3 327 30 328 
3 328 98 326 
3 326 327 328 
3 330 43 331 
3 331 103 329 
3 329 330 331 
3 333 42 334 
3 334 101 332 
3 332 333 334 
3 336 44 337 
3 337 106 335 
3 335 336 337 
3 339 33 340 
3 340 104 338 
3 338 339 340 
3 342 40 343 
3 343 109 341 
3 341 342 343 
3 345 39 346 
3 346 107 344 
3 344 345 346 
3 348 41 349 
3 349 112 347 
3 347 348 349 
3 351 36 352 
3 352 110 350 
3 350 351 352 
3 354 2 355 
3 355 115 353 
3 353 354 355 
3 357 3 358 
3 358 113 356 
3 356 357 358 
3 360 34 361 
3 361 118 359 
3 359 360 361 
3 363 36 364 
3 364 116 362 
3 362 363 364 
3 366 4 367 
3 367 121 365 
3 365 366 367 
3 369 8 370 
3 370 119 368 
3 368 369 370 
3 372 31 373 
3 373 124 371 
3 371 372 373 
3 375 33 376 
3 376 122 374 
3 374 375 376 
3 378 9 379 
3 379 127 377 
3 377 378 379 
3 381 13 382 
3 382 125 380 
3 380 381 382 
3 384 28 385 
3 385 130 383 
3 383 384 385 
3 387 30 388 
3 388 128 386 
3 386 387 388 
3 390 14 391 
3 391 133 389 
3 389 390 391 
3 393 18 394 
3 394 131 392 
3 392 393 394 
3 396 25 397 
3 397 136 395 
3 395 396 397 
3 399 27 400 
3 400 134 398 
3 398 399 400 
3 402 19 403 
3 403 139 401 
3 401 402 403 
3 405 18 406 
3 406 137 404 
3 404 405 406 
3 408 20 409 
3 409 142 407 
3 407 408 409 
3 411 22 412 
3 412 140 410 
3 410 411 412 
3 414 14 415 
3 415 145 413 
3 413 414 415 
3 417 13 418 
3 418 143 416 
3 416 417 418 
3 420 15 421 
3 421 148 419 
3 419 420 421 
3 423 17 424 
3 424 146 422 
3 422 423 424 
3 426 9 427 
3 427 151 425 
3 425 426 427 
3 429 8 430 
3 430 149 428 
3 428 429 430 
3 432 10 433 
3 433 154 431 
3 431 432 433 
3 435 12 436 
3 436 152 434 
3 434 435 436 
3 438 4 439 
3 439 157 437 
3 437 438 439 
3 441 3 442 
3 442 155 440 
3 440 441 442 
3 444 5 445 
3 445 160 443 
3 443 444 445 
3 447 7 448 
3 448 158 446 
3 446 447 448 
