OFF
395 252 0
22.5 15 0
21 16 0
21.5 15 0
3 16 0
2.5 17 0
1.5 17 0
0.5 1 0
1 0 0
1.5 1 0
2 22 0
1.5 21 0
2.5 21 0
5.5 5 0
6.5 5 0
6 6 0
21.5 11 0
21 12 0
20.5 11 0
11.5 9 0
12.5 9 0
12 10 0
16.5 3 0
15.5 3 0
16 2 0
13.5 13 0
12.5 13 0
13 12 0
8.5 5 0
8 6 0
7.5 5 0
2.5 1 0
2 2 0
3.5 1 0
4.5 1 0
4 2 0
1.5 5 0
0.5 5 0
1 4 0
10.5 3 0
11.5 3 0
11 4 0
3 0 0
10.5 5 0
11.5 5 0
11 12 0
11.5 13 0
10.5 13 0
4.5 3 0
3.5 3 0
2.5 5 0
3.5 5 0
4 6 0
0 2 0
0.5 3 0
1.5 11 0
2 10 0
2.5 11 0
4 14 0
4.5 13 0
4.5 15 0
0.5 19 0
0 18 0
0.5 17 0
4.5 19 0
3.5 19 0
4 18 0
7.5 21 0
7 20 0
7.5 19 0
3.5 17 0
2 18 0
6 14 0
5.5 13 0
6.5 7 0
7.5 7 0
7 8 0
1.5 9 0
2.5 9 0
0.5 15 0
0 14 0
0.5 13 0
13 20 0
12.5 19 0
13.5 19 0
9.5 11 0
9 12 0
8.5 11 0
8 18 0
8.5 19 0
11.5 21 0
10.5 21 0
11 20 0
22.5 21 0
22.5 19 0
23 20 0
15.5 21 0
14.5 21 0
15 20 0
17 20 0
16.5 19 0
17.5 19 0
21.5 19 0
21 20 0
20.5 19 0
12.5 11 0
11.5 11 0
16.5 7 0
17.5 7 0
17 8 0
20.5 9 0
20 10 0
21.5 7 0
21 4 0
21.5 5 0
15.5 7 0
15 8 0
14.5 7 0
19.5 7 0
20.5 7 0
21 8 0
18 10 0
18.5 11 0
17.5 11 0
18.5 7 0
18 6 0
21.5 13 0
20.5 13 0
16 6 0
19 8 0
21.5 3 0
22 6 0
17.5 5 0
18.5 5 0
20 2 0
20.5 3 0
19.5 3 0
19.5 5 0
20 6 0
14 2 0
14.5 1 0
14.5 3 0
23 16 0
22.5 17 0
1.5 3 0
2.5 3 0
0.5 7 0
0 6 0
3 4 0
4.5 5 0
7.5 3 0
8 2 0
8.5 3 0
9 8 0
9.5 9 0
8.5 9 0
6.5 3 0
5 4 0
5.5 3 0
6 2 0
6.5 1 0
5.5 1 0
5 0 0
9.5 1 0
8.5 1 0
9 0 0
7.5 1 0
7 0 0
10 2 0
9.5 3 0
12.5 3 0
12 2 0
13.5 9 0
13 8 0
10.5 1 0
13.5 1 0
12.5 1 0
13 0 0
7 4 0
9.5 5 0
9 4 0
5.5 7 0
8.5 7 0
9.5 7 0
10 6 0
15 4 0
15.5 5 0
14.5 5 0
10.5 7 0
13.5 5 0
12.5 5 0
13 4 0
7.5 11 0
7 12 0
6.5 11 0
10 10 0
10.5 9 0
8 10 0
5.5 11 0
6 10 0
5.5 9 0
6.5 9 0
7.5 9 0
3.5 7 0
4.5 7 0
5 8 0
4.5 9 0
6.5 15 0
5.5 15 0
3 8 0
3.5 9 0
4.5 11 0
3.5 11 0
4 10 0
2.5 7 0
2 6 0
1.5 7 0
1 8 0
1.5 13 0
2.5 13 0
2 14 0
0.5 9 0
0 10 0
0.5 11 0
1 12 0
6.5 13 0
5 12 0
3 12 0
7.5 15 0
7 16 0
3.5 13 0
3.5 15 0
1.5 15 0
1 16 0
2.5 15 0
1 20 0
1.5 19 0
0.5 21 0
2.5 19 0
3.5 21 0
4.5 21 0
4 22 0
3 20 0
5.5 21 0
5 20 0
6.5 21 0
6 22 0
6 18 0
5.5 19 0
5 16 0
6.5 17 0
5.5 17 0
4.5 17 0
6.5 19 0
12.5 15 0
13.5 15 0
13 16 0
9 16 0
9.5 15 0
9.5 17 0
12 22 0
12.5 21 0
13.5 21 0
10 22 0
9.5 21 0
8 22 0
8.5 21 0
9 20 0
10 18 0
9.5 19 0
14 14 0
10.5 19 0
16.5 15 0
15.5 15 0
16 14 0
11.5 19 0
12 18 0
7.5 17 0
8.5 17 0
10.5 17 0
11 16 0
10.5 11 0
8 14 0
8.5 15 0
7.5 13 0
8.5 13 0
10 14 0
9.5 13 0
11.5 15 0
12 14 0
10.5 15 0
14.5 9 0
14 10 0
13.5 11 0
16.5 13 0
15.5 13 0
15 12 0
17.5 9 0
18.5 9 0
14.5 13 0
14.5 15 0
17 16 0
16.5 17 0
15.5 19 0
16 18 0
11.5 17 0
12.5 17 0
13.5 17 0
14 22 0
15.5 17 0
15 16 0
16.5 21 0
16 22 0
14.5 17 0
14 18 0
20 22 0
20.5 21 0
21.5 21 0
14.5 19 0
20.5 15 0
19.5 15 0
20 14 0
18 14 0
18.5 15 0
18.5 21 0
19.5 21 0
18 22 0
17.5 21 0
19 20 0
19.5 19 0
22 22 0
17.5 17 0
18 18 0
22 18 0
18.5 19 0
20 18 0
18.5 17 0
21.5 17 0
19.5 17 0
17.5 15 0
19 16 0
20.5 17 0
17.5 13 0
17 12 0
22 14 0
18.5 13 0
22 10 0
22.5 11 0
19.5 13 0
22.5 13 0
23 12 0
23 8 0
22.5 9 0
22.5 7 0
19.5 9 0
19.5 11 0
21.5 9 0
20.5 5 0
17 4 0
16.5 5 0
19 12 0
15.5 11 0
16.5 11 0
14.5 11 0
16.5 9 0
16 10 0
15.5 9 0
11 8 0
11.5 7 0
12 6 0
14 6 0
13.5 7 0
12.5 7 0
13.5 3 0
19 4 0
11 0 0
11.5 1 0
15.5 1 0
15 0 0
18.5 3 0
17.5 3 0
18 2 0
18.5 1 0
17.5 1 0
16.5 1 0
17 0 0
19.5 1 0
19 0 0
20.5 1 0
23 4 0
22.5 5 0
22.5 3 0
22 2 0
21.5 1 0
21 0 0
22.5 1 0
3 0 1 2 
3 3 4 5 
3 6 7 8 
3 9 10 11 
3 12 13 14 
3 15 16 17 
3 18 19 20 
3 21 22 23 
3 24 25 26 
3 27 28 29 
3 8 30 31 
3 32 33 34 
3 35 36 37 
3 38 39 40 
3 41 32 30 
3 42 40 43 
3 44 45 46 
3 34 47 48 
3 49 50 51 
3 52 6 53 
3 54 55 56 
3 57 58 59 
3 60 61 62 
3 63 64 65 
3 66 67 68 
3 69 70 4 
3 71 58 72 
3 73 74 75 
3 55 76 77 
3 78 79 80 
3 81 82 83 
3 84 85 86 
3 68 87 88 
3 89 90 91 
3 92 93 94 
3 95 96 97 
3 98 99 100 
3 101 102 103 
3 20 104 105 
3 106 107 108 
3 109 17 110 
3 111 112 113 
3 114 115 116 
3 117 118 119 
3 120 121 122 
3 117 123 124 
3 125 126 16 
3 114 127 106 
3 123 128 107 
3 129 130 113 
3 131 132 124 
3 133 134 135 
3 136 137 132 
3 138 139 140 
3 141 142 0 
3 143 37 53 
3 144 143 31 
3 145 146 36 
3 144 48 147 
3 148 50 147 
3 149 150 151 
3 152 153 154 
3 155 156 157 
3 158 157 47 
3 159 158 160 
3 160 33 161 
3 162 163 164 
3 165 159 166 
3 150 165 163 
3 162 167 168 
3 169 39 170 
3 171 19 172 
3 173 38 167 
3 174 175 176 
3 149 177 155 
3 178 179 168 
3 14 73 180 
3 179 27 151 
3 181 182 152 
3 13 177 29 
3 42 183 178 
3 184 185 186 
3 183 187 182 
3 188 189 190 
3 191 192 193 
3 194 153 195 
3 86 196 154 
3 74 28 181 
3 193 197 198 
3 198 199 200 
3 75 201 200 
3 202 203 204 
3 205 204 199 
3 206 207 71 
3 208 209 77 
3 210 211 212 
3 203 51 180 
3 148 156 12 
3 208 213 202 
3 214 35 49 
3 215 213 216 
3 209 205 212 
3 145 214 215 
3 217 218 219 
3 76 220 216 
3 221 220 222 
3 223 222 54 
3 224 72 225 
3 226 56 211 
3 197 225 210 
3 196 191 201 
3 206 227 228 
3 218 226 229 
3 57 230 229 
3 78 231 232 
3 217 80 223 
3 230 233 219 
3 62 232 5 
3 234 60 235 
3 234 10 236 
3 237 235 70 
3 238 239 240 
3 241 238 11 
3 242 239 243 
3 64 241 237 
3 244 245 242 
3 246 247 63 
3 248 249 250 
3 251 65 69 
3 3 231 233 
3 247 252 243 
3 253 254 255 
3 256 257 258 
3 259 260 261 
3 67 244 252 
3 90 262 263 
3 264 66 265 
3 266 263 265 
3 267 268 88 
3 254 24 269 
3 268 270 266 
3 271 272 273 
3 274 270 275 
3 276 277 87 
3 278 258 279 
3 105 280 194 
3 249 228 276 
3 281 282 227 
3 246 251 250 
3 207 248 59 
3 281 283 284 
3 283 224 192 
3 285 257 286 
3 256 277 282 
3 280 44 84 
3 85 286 284 
3 253 287 288 
3 289 285 46 
3 290 291 171 
3 25 288 45 
3 104 292 26 
3 293 294 295 
3 296 297 120 
3 269 298 299 
3 273 298 294 
3 300 301 271 
3 99 302 303 
3 278 304 267 
3 275 304 305 
3 279 289 287 
3 274 82 91 
3 306 305 255 
3 307 261 96 
3 272 308 309 
3 260 89 81 
3 95 310 311 
3 312 313 306 
3 314 315 316 
3 317 302 97 
3 313 317 83 
3 318 319 320 
3 309 312 299 
3 303 308 301 
3 321 319 322 
3 323 324 325 
3 326 310 98 
3 327 326 328 
3 329 316 92 
3 102 315 324 
3 330 331 100 
3 101 332 93 
3 333 334 328 
3 331 335 333 
3 327 103 323 
3 142 332 336 
3 337 334 335 
3 338 322 339 
3 340 1 336 
3 338 330 300 
3 337 339 340 
3 341 293 342 
3 2 318 343 
3 341 344 321 
3 15 345 346 
3 320 347 126 
3 348 343 125 
3 346 349 348 
3 350 351 352 
3 353 110 354 
3 119 355 109 
3 112 356 134 
3 351 345 355 
3 357 358 21 
3 137 111 118 
3 359 121 354 
3 353 297 128 
3 344 359 347 
3 360 361 342 
3 292 362 295 
3 363 296 364 
3 365 108 363 
3 361 364 122 
3 18 195 366 
3 362 291 360 
3 367 187 368 
3 189 368 43 
3 369 370 188 
3 367 371 366 
3 115 365 290 
3 172 371 370 
3 186 116 369 
3 358 127 185 
3 138 372 174 
3 136 373 356 
3 374 375 173 
3 140 22 184 
3 372 190 169 
3 375 175 170 
3 376 139 377 
3 378 379 380 
3 381 380 382 
3 23 376 383 
3 384 382 383 
3 385 381 386 
3 385 387 133 
3 131 357 379 
3 378 135 373 
3 388 389 390 
3 391 390 129 
3 130 389 352 
3 392 387 393 
3 392 394 391 
