OFF
161 144 0
0 16 0
-1 14 0
0 12 0
2 12 0
4 12 0
3 14 0
4 16 0
2 16 0
6 12 0
8 12 0
7 14 0
8 16 0
6 16 0
10 12 0
12 12 0
11 14 0
12 16 0
10 16 0
14 12 0
16 12 0
15 14 0
16 16 0
14 16 0
16 8 0
17 10 0
13 10 0
12 8 0
14 8 0
9 10 0
8 8 0
10 8 0
5 10 0
4 8 0
6 8 0
1 10 0
0 8 0
2 8 0
-1 6 0
0 4 0
2 4 0
4 4 0
3 6 0
6 4 0
8 4 0
7 6 0
10 4 0
12 4 0
11 6 0
14 4 0
16 4 0
15 6 0
16 -3.57073e-07 0
17 2 0
13 2 0
12 -1.68587e-07 0
14 -2.6283e-07 0
9 2 0
8 -8.42937e-08 0
10 -1.26441e-07 0
5 2 0
4 0 0
6 -4.21468e-08 0
1 2 0
0 0 0
2 0 0
1.5 1 3.73031e-08
1.5 3 1.49194e-07
3 4 7.71335e-33
4.5 3 7.71316e-33
4.5 1 7.71335e-33
3 0 3.7304e-08
5.5 1 1.49197e-07
5.5 3 3.72993e-08
7 4 3.73021e-08
8.5 3 1.50941e-19
8.5 1 3.72985e-08
7 -6.32203e-08 2.66918e-06
9.5 1 9.32621e-09
9.5 3 3.72993e-08
11 4 1.50941e-19
12.5 3 1.5602e-19
12.5 1 1.54326e-19
11 -1.47514e-07 2.33155e-09
13.5 1 3.7304e-08
13.5 3 2.3315e-09
15 4 7.7141e-33
16.5 3 7.71429e-33
16.5 1 7.7141e-33
15 -3.09952e-07 2.33127e-09
14.5 7 9.32483e-09
14.5 5 9.32483e-09
13 4 2.33138e-09
11.5 5 2.57752e-09
11.5 7 1.64961e-07
13 8 6.59845e-07
10.5 7 1.55961e-19
10.5 5 1.51652e-19
9 4 2.57752e-09
7.5 5 1.5342e-19
7.5 7 3.21599e-08
9 8 1.54267e-19
6.5 7 0
6.5 5 0
5 4 0
3.5 5 0
3.5 7 0
5 8 0
2.5 7 0
2.5 5 0
1 4 0
-0.5 5 0
-0.5 7 0
1 8 0
1.5 9 0
1.5 11 0
3 12 0
4.5 11 0
4.5 9 0
3 8 0
5.5 9 0
5.5 11 0
7 12 0
8.5 11 0
8.5 9 0
7 8 0
9.5 9 0
9.5 11 0
11 12 0
12.5 11 0
12.5 9 0
11 8 0
13.5 9 0
13.5 11 0
15 12 0
16.5 11 0
16.5 9 0
15 8 0
14.5 15 0
14.5 13 0
13 12 0
11.5 13 0
11.5 15 0
13 16 0
10.5 15 0
10.5 13 0
9 12 0
7.5 13 0
7.5 15 0
9 16 0
6.5 15 0
6.5 13 0
5 12 0
3.5 13 0
3.5 15 0
5 16 0
2.5 15 0
2.5 13 0
1 12 0
-0.5 13 0
-0.5 15 0
1 16 0
3 62 66 65 
5 66 62 38 109 39 
4 63 62 65 64 
3 59 72 71 
6 72 59 68 40 103 42 
5 60 69 59 71 61 
3 56 78 77 
6 78 56 74 43 97 45 
5 57 75 56 77 58 
3 53 84 83 
6 84 53 80 46 91 48 
5 54 81 53 83 55 
3 50 90 89 
5 90 50 49 85 48 
5 23 50 89 27 136 
3 47 96 95 
6 96 47 92 46 79 45 
6 26 93 47 95 30 130 
3 44 102 101 
6 102 44 98 43 73 42 
6 29 99 44 101 33 124 
3 41 108 107 
6 108 41 104 40 67 39 
6 32 105 41 107 36 118 
3 34 114 113 
5 114 34 2 157 3 
5 112 35 34 113 36 
3 31 120 119 
6 120 31 116 4 151 8 
6 106 32 117 31 119 33 
3 28 126 125 
6 126 28 122 9 145 13 
6 100 29 123 28 125 30 
3 25 132 131 
6 132 25 128 14 139 18 
6 94 26 129 25 131 27 
3 20 138 137 
5 138 20 19 133 18 
4 21 20 137 22 
3 15 144 143 
6 144 15 140 14 127 13 
5 16 141 15 143 17 
3 10 150 149 
6 150 10 146 9 121 8 
5 11 147 10 149 12 
3 5 156 155 
6 156 5 152 4 115 3 
5 6 153 5 155 7 
3 66 39 67 
3 67 40 68 
3 68 59 69 
3 69 60 70 
3 70 64 65 
6 65 66 67 68 69 70 
3 72 42 73 
3 73 43 74 
3 74 56 75 
3 75 57 76 
3 76 61 71 
6 71 72 73 74 75 76 
3 78 45 79 
3 79 46 80 
3 80 53 81 
3 81 54 82 
3 82 58 77 
6 77 78 79 80 81 82 
3 84 48 85 
3 85 49 86 
3 86 52 87 
3 87 51 88 
3 88 55 83 
6 83 84 85 86 87 88 
3 90 48 91 
3 91 46 92 
3 92 47 93 
3 93 26 94 
3 94 27 89 
6 89 90 91 92 93 94 
3 96 45 97 
3 97 43 98 
3 98 44 99 
3 99 29 100 
3 100 30 95 
6 95 96 97 98 99 100 
3 102 42 103 
3 103 40 104 
3 104 41 105 
3 105 32 106 
3 106 33 101 
6 101 102 103 104 105 106 
3 108 39 109 
3 109 38 110 
3 110 37 111 
3 111 35 112 
3 112 36 107 
6 107 108 109 110 111 112 
3 114 3 115 
3 115 4 116 
3 116 31 117 
3 117 32 118 
3 118 36 113 
6 113 114 115 116 117 118 
3 120 8 121 
3 121 9 122 
3 122 28 123 
3 123 29 124 
3 124 33 119 
6 119 120 121 122 123 124 
3 126 13 127 
3 127 14 128 
3 128 25 129 
3 129 26 130 
3 130 30 125 
6 125 126 127 128 129 130 
3 132 18 133 
3 133 19 134 
3 134 24 135 
3 135 23 136 
3 136 27 131 
6 131 132 133 134 135 136 
3 138 18 139 
3 139 14 140 
3 140 15 141 
3 141 16 142 
3 142 22 137 
6 137 138 139 140 141 142 
3 144 13 145 
3 145 9 146 
3 146 10 147 
3 147 11 148 
3 148 17 143 
6 143 144 145 146 147 148 
3 150 8 151 
3 151 4 152 
3 152 5 153 
3 153 6 154 
3 154 12 149 
6 149 150 151 152 153 154 
3 156 3 157 
3 157 2 158 
3 158 1 159 
3 159 0 160 
3 160 7 155 
6 155 156 157 158 159 160 
